<?xml version="1.0" encoding="UTF-8" standalone="no"?>
<svg
   width="493"
   height="312"
   id="svg5029"
   version="1.1"
   inkscape:version="1.3.2 (1:1.3.2+202311252150+091e20ef0f)"
   sodipodi:docname="dialog.svg"
   inkscape:output_extension="org.inkscape.output.svg.inkscape"
   inkscape:export-filename="dialog.png"
   inkscape:export-xdpi="96"
   inkscape:export-ydpi="96"
   xmlns:inkscape="http://www.inkscape.org/namespaces/inkscape"
   xmlns:sodipodi="http://sodipodi.sourceforge.net/DTD/sodipodi-0.dtd"
   xmlns="http://www.w3.org/2000/svg"
   xmlns:svg="http://www.w3.org/2000/svg"
   xmlns:rdf="http://www.w3.org/1999/02/22-rdf-syntax-ns#"
   xmlns:cc="http://creativecommons.org/ns#"
   xmlns:dc="http://purl.org/dc/elements/1.1/">
  <defs
     id="defs5031" />
  <sodipodi:namedview
     id="base"
     pagecolor="#ffffff"
     bordercolor="#666666"
     borderopacity="1.0"
     inkscape:pageopacity="0.0"
     inkscape:pageshadow="2"
     inkscape:zoom="2"
     inkscape:cx="135.25"
     inkscape:cy="123.75"
     inkscape:document-units="px"
     inkscape:current-layer="svg5029"
     showgrid="false"
     inkscape:window-width="1280"
     inkscape:window-height="1295"
     inkscape:window-x="20"
     inkscape:window-y="20"
     inkscape:window-maximized="0"
     showborder="true"
     inkscape:document-rotation="0"
     borderlayer="true"
     inkscape:snap-bbox="true"
     inkscape:snap-page="true"
     inkscape:showpageshadow="2"
     inkscape:pagecheckerboard="0"
     inkscape:deskcolor="#d1d1d1"
     showguides="true">
    <sodipodi:guide
       position="50.25,244.75"
       orientation="0,-1"
       id="guide16589"
       inkscape:locked="false" />
    <sodipodi:guide
       position="65.75,212.625"
       orientation="0,-1"
       id="guide16591"
       inkscape:locked="false" />
  </sodipodi:namedview>
  <metadata
     id="metadata5034">
    <rdf:RDF>
      <cc:Work
         rdf:about="">
        <dc:format>image/svg+xml</dc:format>
        <dc:type
           rdf:resource="http://purl.org/dc/dcmitype/StillImage" />
        <dc:title />
      </cc:Work>
    </rdf:RDF>
  </metadata>
  <rect
     style="fill:#ffffff;stroke-width:18.8976;stroke-linejoin:round"
     id="rect10912"
     width="327.49841"
     height="312.2905"
     x="165.5016"
     y="-0.29050872" />
  <g
     inkscape:label="Layer 1"
     inkscape:groupmode="layer"
     id="layer1" />
  <style
     id="style1182" />
  <g
     id="g8"
     style="display:inline;stroke-width:1.0841"
     transform="matrix(0.9494412,0,0,0.9494412,-477.90119,-252.52794)" />
  <g
     id="g6"
     style="display:inline;stroke-width:1.0841"
     transform="matrix(0.9494412,0,0,0.9494412,-477.90119,-252.52794)" />
  <g
     id="g3"
     transform="translate(-2)">
    <path
       id="path543"
       style="display:inline;fill:#f6d6b4;fill-opacity:1;stroke:none;stroke-width:12.9659;stroke-linecap:round;stroke-linejoin:round"
       d="M 1.7890625,-4.2872936e-8 H 165.5016 V 312 H 1.7890625 Z" />
    <g
       id="g2">
      <path
         id="path608"
         style="display:inline;fill:#06263f;fill-opacity:1;stroke-width:2.05857;stroke-linecap:round;stroke-linejoin:round"
         d="m 52.771487,8.3014578 c -1.7848,0 -3.24317,1.45834 -3.24317,3.2431582 0,1.784831 1.45837,3.244455 3.24317,3.244448 1.78485,7e-6 3.24443,-1.459617 3.24443,-3.244448 0,-1.7848182 -1.45958,-3.2431582 -3.24443,-3.2431582 z m 0,1.163423 c 1.15825,-6e-6 2.07974,0.9215052 2.07974,2.0797352 0,1.158243 -0.92149,2.08876 -2.07974,2.088753 -1.15823,7e-6 -2.08747,-0.93051 -2.08747,-2.088753 0,-1.15823 0.92924,-2.0797412 2.08747,-2.0797352 z m -14.0061,0.9716612 c -1.071458,-2.8e-4 -1.940317,0.868 -1.94075,1.939458 -2.8e-4,1.071962 0.868788,1.941029 1.94075,1.940749 1.071466,-4.21e-4 1.93976,-0.869283 1.93948,-1.940749 -4.33e-4,-1.070962 -0.868518,-1.939037 -1.93948,-1.939458 z m -18.12051,11.695969 c -0.571074,-2.78e-4 -1.034289,0.462362 -1.03472,1.033435 -2.78e-4,0.571575 0.463145,1.034998 1.03472,1.03472 0.571072,-4.34e-4 1.033708,-0.463648 1.03343,-1.03472 -4.31e-4,-0.57057 -0.46286,-1.033001 -1.03343,-1.033435 z m 7.08347,15.155337 c -1.071459,-2.75e-4 -1.940314,0.868012 -1.94074,1.939471 -2.8e-4,1.071958 0.868782,1.941024 1.94074,1.940749 1.071466,-4.21e-4 1.93976,-0.869283 1.93948,-1.940749 -4.26e-4,-1.070967 -0.868513,-1.93905 -1.93948,-1.939471 z m -17.12825,5.442598 c -1.0143604,-7e-6 -1.8429504,0.828568 -1.8429504,1.842938 0,1.01437 0.82859,1.844229 1.8429504,1.844229 1.01439,0 1.84422,-0.829859 1.84422,-1.844229 0,-1.01437 -0.82983,-1.842945 -1.84422,-1.842938 z m 0,0.661497 c 0.65827,0 1.18271,0.523179 1.18271,1.181441 0,0.658262 -0.52444,1.186589 -1.18271,1.186582 -0.6582404,7e-6 -1.1866004,-0.52832 -1.1866004,-1.186582 0,-0.658262 0.52836,-1.181441 1.1866004,-1.181441 z m 5.70641,8.056423 c -0.707042,4.33e-4 -1.280103,0.573499 -1.28053,1.280541 -2.78e-4,0.707541 0.572989,1.281385 1.28053,1.281818 0.708049,2.85e-4 1.282108,-0.573769 1.28183,-1.281818 -4.27e-4,-0.70755 -0.57428,-1.280826 -1.28183,-1.280541 z m -4.77337,8.986907 c -2.0398404,-6e-6 -3.7077604,1.667891 -3.7077604,3.707759 0,2.039854 1.66792,3.706474 3.7077604,3.706461 2.0399,1.3e-5 3.70647,-1.666607 3.70647,-3.706461 0,-2.039868 -1.66657,-3.707765 -3.70647,-3.707759 z m 0,1.330723 c 1.32377,-6e-6 2.37575,1.053294 2.37575,2.377036 0,1.323734 -1.05198,2.38604 -2.37575,2.386034 -1.32371,6e-6 -2.3873304,-1.0623 -2.3873304,-2.386034 0,-1.323742 1.0636204,-2.377042 2.3873304,-2.377036 z m -2.9136804,9.95084 c -1.0259735,-2.84e-4 -1.8579604,0.831125 -1.85839,1.857098 -2.835e-4,1.026478 0.8319123,1.858673 1.85839,1.858389 C 9.6454267,75.431889 10.47683,74.599904 10.476547,73.573934 10.476118,72.548468 9.6449226,71.71727 8.6194566,71.716836 Z M 41.345787,88.677799 c -0.707038,4.33e-4 -1.280097,0.573492 -1.28053,1.28053 -2.85e-4,0.707546 0.572985,1.281397 1.28053,1.28183 0.708041,2.69e-4 1.282085,-0.573789 1.2818,-1.28183 -4.33e-4,-0.707534 -0.574266,-1.280798 -1.2818,-1.28053 z m 0.55339,7.42581 c -1.01435,-1e-5 -1.84294,0.82857 -1.84294,1.84294 0,1.01437 0.82859,1.84423 1.84294,1.84422 1.01436,1e-5 1.84422,-0.82985 1.84422,-1.84422 0,-1.01437 -0.82986,-1.84295 -1.84422,-1.84294 z m 0,0.6615 c 0.65828,0 1.18271,0.52318 1.18271,1.18144 0,0.65826 -0.52443,1.18658 -1.18271,1.18658 -0.65823,0 -1.18659,-0.52832 -1.18659,-1.18658 0,-0.65826 0.52836,-1.18144 1.18659,-1.18144 z m 13.31884,14.605811 c -1.071459,-2.8e-4 -1.940318,0.868 -1.94075,1.93946 -2.8e-4,1.07196 0.868787,1.94103 1.94075,1.94075 1.071455,-4.4e-4 1.93973,-0.86929 1.93945,-1.94075 -4.32e-4,-1.07095 -0.868499,-1.93902 -1.93945,-1.93946 z m 15.94811,41.64374 c -1.81325,-2e-5 -3.29593,1.48266 -3.29593,3.29593 0,1.81326 1.48268,3.29464 3.29593,3.29463 1.81328,1e-5 3.29465,-1.48137 3.29465,-3.29463 0,-1.81327 -1.48137,-3.29595 -3.29465,-3.29593 z m 0,1.18272 c 1.1767,0 2.11191,0.93651 2.11191,2.11321 0,1.17668 -0.93521,2.12093 -2.11191,2.12092 -1.17666,1e-5 -2.1222,-0.94424 -2.1222,-2.12092 0,-1.1767 0.94554,-2.11321 2.1222,-2.11321 z m 7.30355,3.84546 c -1.01435,0 -1.84295,0.82858 -1.84295,1.84294 0,1.01437 0.8286,1.84423 1.84295,1.84423 1.01438,0 1.84421,-0.82986 1.84421,-1.84423 0,-1.01436 -0.82983,-1.84294 -1.84421,-1.84294 z m 0,0.6615 c 0.65827,0 1.18273,0.52319 1.18273,1.18144 0,0.65826 -0.52446,1.18659 -1.18273,1.18659 -0.65824,0 -1.18659,-0.52833 -1.18659,-1.18659 0,-0.65825 0.52835,-1.18144 1.18659,-1.18144 z m 47.659043,25.10748 c -1.31825,6e-5 -2.38669,1.06906 -2.38607,2.38731 6e-5,1.31776 1.06831,2.38601 2.38607,2.38607 1.31775,-9e-5 2.38597,-1.06832 2.38603,-2.38607 6.2e-4,-1.31823 -1.0678,-2.38722 -2.38603,-2.38731 z"
         sodipodi:nodetypes="sscsscscscccccccccccccccccssscsscsscccccsscsssssssccccccccccssssssssssccccccssscsssssssssssssssccccc" />
      <path
         id="path574"
         style="color:#000000;display:inline;fill:#06263f;fill-opacity:1;stroke-width:3.89021;stroke-linejoin:round;-inkscape-stroke:none"
         d="m 67.945905,190.87593 c -0.557237,-0.20518 -9.367491,18.85433 -4.22056,27.09061 0,0 1.277881,0.57485 3.460266,0.57485 2.182348,0 3.460267,-0.57485 3.460267,-0.57485 0,0 5.062639,-8.41353 -1.012484,-18.38986 0,0 -2.822698,-4.98923 -1.687489,-8.70075 z m -1.257269,5.74487 c -0.07225,0.30939 -0.207235,1.00559 -0.430211,1.85437 -0.294896,1.12244 -0.844271,3.01397 -1.331439,4.99198 -0.274873,1.11593 -0.514018,2.19655 -0.71023,3.22106 -0.06219,0.32462 -0.119601,0.63563 -0.170605,0.93275 -0.111796,0.65132 -0.209181,1.3054 -0.28186,1.93226 -0.208213,1.79554 -0.17635,3.103 -0.05194,4.1501 0.04671,0.39302 0.105436,0.73809 0.159478,1.02918 0.03323,0.17934 0.06456,0.34508 0.09828,0.51922 0.108255,0.55984 0.259938,1.28995 0.302264,1.47238 -0.08725,-0.17647 -0.401624,-0.74564 -0.623071,-1.29436 -0.06466,-0.16032 -0.12545,-0.32813 -0.181723,-0.50439 -0.09343,-0.29248 -0.190639,-0.65151 -0.270743,-1.07182 -0.213434,-1.11964 -0.287643,-2.55294 -0.07785,-4.43938 0.07311,-0.65714 0.177166,-1.33584 0.298552,-2.00273 0.05545,-0.30474 0.116781,-0.62264 0.185435,-0.95316 0.215637,-1.03817 0.486598,-2.14076 0.797388,-3.25257 0.543669,-1.94494 1.203151,-3.86673 1.587343,-4.8937 0.296349,-0.79221 0.588444,-1.42115 0.700953,-1.69119 z m 0.591549,3.28781 c -0.0676,0.41862 -0.217175,1.46079 -0.396838,2.50341 -0.344362,1.99826 -0.722429,4.24229 -0.955005,6.56635 -0.01082,0.10771 -0.02165,0.2131 -0.03152,0.3171 -0.11925,1.25498 -0.180213,2.35618 -0.220669,3.58265 -0.02915,0.88376 -0.04377,1.67459 -0.06675,2.23638 -0.02715,0.66352 -0.105559,1.25637 -0.126095,1.50761 -0.04215,-0.23504 -0.182302,-0.82898 -0.261467,-1.47794 -0.06722,-0.55082 -0.140289,-1.36252 -0.17802,-2.26049 -0.05061,-1.20433 -0.0337,-2.46606 0.09086,-3.72729 0.01073,-0.10877 0.02231,-0.21949 0.03522,-0.33194 0.25783,-2.24769 0.912964,-4.79215 1.396353,-6.54595 0.270913,-0.98284 0.60073,-1.9974 0.713931,-2.36989 z m 1.474226,1.49277 a 0.1496596,0.10957856 89.306484 0 1 0.08156,0.0705 c 0.351075,0.77832 0.773453,1.62696 1.181238,2.52566 0.368022,0.81104 0.724822,1.66741 0.993951,2.55163 0.263365,0.86516 0.435575,1.73189 0.522933,2.54976 0.08659,0.81084 0.106376,1.629 0.06675,2.39957 -0.07757,1.50967 -0.371706,2.58886 -0.715784,3.37311 -0.149784,0.34135 -0.306119,0.61782 -0.437635,0.83076 -0.05706,0.0924 -0.115661,0.18054 -0.174318,0.26333 -0.262596,0.37042 -0.600483,0.72901 -0.695389,0.84002 0.05421,-0.12419 0.283939,-0.68454 0.44505,-1.09593 0.03845,-0.0982 0.07624,-0.19528 0.114978,-0.2967 0.08906,-0.23347 0.189812,-0.52007 0.28186,-0.85487 0.209998,-0.76372 0.370776,-1.73968 0.387562,-3.10793 0.0085,-0.70884 -0.02146,-1.44593 -0.09086,-2.19559 -0.0695,-0.75114 -0.170927,-1.56194 -0.343061,-2.39771 -0.177185,-0.86026 -0.42742,-1.73368 -0.715784,-2.59242 -0.220071,-0.65535 -0.466878,-1.31054 -0.708378,-1.91186 0.01291,0.10441 0.02602,0.20779 0.03893,0.30968 0.190164,1.49739 0.380479,2.6699 0.539625,3.76438 0.147353,1.01329 0.281461,2.05239 0.322658,3.10609 0.01538,0.39287 0.02184,0.80908 0.01301,1.22759 -0.02706,1.28365 -0.188455,2.3705 -0.419083,3.31378 -0.190525,0.77922 -0.420698,1.42188 -0.56188,1.76351 -0.148559,0.35942 -0.319078,0.61142 -0.378295,0.72321 0.015,-0.14626 0.01908,-0.4713 0.08716,-0.87898 0.06618,-0.39631 0.200531,-1.03071 0.322658,-1.80987 0.14609,-0.93187 0.247016,-1.91795 0.259615,-3.13204 0.0038,-0.39373 -0.0019,-0.78794 -0.01111,-1.16641 -0.02089,-0.8962 -0.05507,-2.15873 -0.09457,-3.06528 -0.04814,-1.10501 -0.123807,-2.29308 -0.294839,-3.79591 -0.04168,-0.36664 -0.08735,-0.74634 -0.137232,-1.13859 a 0.1496596,0.10957856 89.306484 0 1 0.11868,-0.17246 z m -1.146004,3.18211 c 0.03712,0.16927 0.153506,0.59153 0.231797,1.06442 0.170681,1.03072 0.387467,2.81592 0.298561,4.61368 -0.09077,1.8169 -0.513581,4.22813 -0.832622,5.4389 -0.128706,0.48845 -0.29596,0.85525 -0.354179,1.02361 -0.0019,-0.18891 -0.03874,-0.61254 -0.0095,-1.13117 0.06618,-1.16723 0.377925,-3.77264 0.474721,-5.41292 0.12356,-2.09701 0.09295,-3.01671 0.124244,-4.49131 0.01035,-0.48986 0.05583,-0.92131 0.06675,-1.10521 z m 3.360139,15.06126 c -0.08279,-0.0211 -0.169827,-0.0212 -0.259615,0.004 0,0 -2.362229,0.56929 -3.336023,0.56929 -0.973766,0 -3.339736,-0.56929 -3.339736,-0.56929 -0.173966,-0.0572 -0.716087,0.18686 -0.691687,0.57486 l -0.810357,9.59826 a 74.898444,74.898444 0 0 0 -0.218818,8.91955 l 2.631358,75.0485 c 0.01405,0.4087 0.337156,0.74054 0.745463,0.76215 l 3.280395,0.16504 c 0.440227,0.0211 0.813576,-0.32146 0.8289,-0.76214 l 2.629516,-75.20799 a 74.929306,74.929306 0 0 0 -0.218818,-8.91955 l -0.810367,-9.60382 c 0.01044,-0.28481 -0.18009,-0.51887 -0.42836,-0.57857 z m -6.492174,1.2313 c 0.619168,0.15398 1.821132,0.48585 2.896536,0.48585 1.07509,0 2.269449,-0.33187 2.889121,-0.48585 l 0.628625,11.33952 a 45.713817,45.713817 0 0 1 0.04453,4.1297 l -0.152063,4.38004 c -1.177193,0.1866 -2.439105,0.35789 -3.413906,0.35789 -0.973689,0 -2.232031,-0.17014 -3.408342,-0.35604 l -0.159477,-4.54878 a 45.143486,45.143486 0 0 1 0.04453,-4.1297 z m 6.239974,21.74629 -0.06494,1.81543 c -1.139348,0.17818 -2.343458,0.33935 -3.282247,0.33935 -0.937706,0 -2.14004,-0.16001 -3.278534,-0.3375 l -0.06304,-1.81543 c 1.156999,0.18133 2.386734,0.34862 3.341587,0.34862 0.956116,0 2.189108,-0.16843 3.34715,-0.35047 z" />
      <path
         id="path580"
         style="display:inline;fill:#06263f;stroke-width:1.74979;stroke-linejoin:round"
         d="m 119.38262,234.4742 v 2.09545 h -0.78625 l -2.78713,8.85836 h 8.96406 l -2.78898,-8.85836 h -0.7844 v -2.09545 z m -3.57338,11.68444 v 1.7839 h 8.96406 v -1.7839 z m 0,2.51452 v 65.73954 h 8.96406 v -65.73954 z" />
      <path
         id="path624"
         style="color:#000000;display:inline;fill:#06263f;fill-opacity:1;stroke-width:3.89021;stroke-linecap:square;-inkscape-stroke:none"
         d="m 93.988375,216.33709 -3.945593,13.27374 v 84.63941 h 7.898078 v -84.63941 z m -0.820099,6.15179 h 1.635279 l 1.926151,6.77187 h -5.479453 z m -0.835043,8.06587 h 3.311878 v 72.60901 h -3.311878 z m -1.22458,73.84663 h 5.76101 v 5.99234 h -5.76101 z"
         sodipodi:nodetypes="ccccccccccccccccccccc" />
      <path
         style="color:#000000;display:inline;fill:#06263f;fill-opacity:1;stroke-width:3.89021;stroke-linejoin:round;-inkscape-stroke:none"
         d="m 4.3547355,213.97639 v 28.20405 h 1.5756452 v -28.20405 z m 0,31.97874 v 14.12604 h 1.5756452 v -14.12604 z m 0,17.44174 v 2.53474 h 1.5756452 v -2.53474 z m 0,5.43941 v 7.59736 h 1.5756452 v -7.59736 z"
         id="path569" />
      <path
         style="color:#000000;display:inline;fill:#06263f;fill-opacity:1;stroke-width:3.89021;stroke-linejoin:round;-inkscape-stroke:none"
         d="m 26.053483,217.85108 v 8.40572 h 1.582491 v -8.40572 z m 0,11.3104 v 22.58654 h 1.582491 v -22.58654 z m 0,26.12833 v 2.5416 h 1.582491 v -2.5416 z m 0,6.31629 v 39.93861 h 1.582491 V 261.6061 Z"
         id="path570"
         sodipodi:nodetypes="cccccccccccccccccccc" />
      <path
         style="color:#000000;display:inline;fill:#06263f;fill-opacity:1;stroke-width:3.89021;stroke-linejoin:round;-inkscape-stroke:none"
         d="m 42.697747,191.86252 v 62.70387 h 1.582529 v -62.70387 z m 0,65.60168 v 12.35856 h 1.582529 V 257.4642 Z m 0,16.4758 v 6.11078 h 1.582529 V 273.94 Z m 0,9.65941 v 2.54156 h 1.582529 v -2.54156 z m 0,6.31628 v 24.10052 h 1.582529 v -24.10052 z"
         id="path571" />
      <path
         id="path572"
         style="color:#000000;display:inline;fill:#06263f;fill-opacity:1;stroke-width:3.89021;stroke-linejoin:round;-inkscape-stroke:none"
         d="m 12.939516,277.47535 v 4.64522 h 1.574364 v -4.64522 z m 0,7.19313 v 29.58103 h 0.786252 0.788112 v -29.58103 h -0.788112 z" />
      <path
         style="color:#000000;display:inline;fill:#06263f;stroke-width:1.02929;-inkscape-stroke:none"
         d="m 138.60747,206.86106 v 26.02297 h 1.72555 v -26.02297 z m 0,31.43711 v 44.45858 h 1.72555 v -44.45858 z m 0,49.86907 v 5.20206 h 1.72555 v -5.20206 z m 0,9.0302 v 8.46105 h 1.72555 v -8.46105 z"
         id="path625" />
      <path
         style="color:#000000;display:inline;fill:#06263f;stroke-width:1.02929;-inkscape-stroke:none"
         d="m 146.58093,267.8484 v 4.17615 h 1.56424 v -4.17615 z m 0,10.20836 v 10.20836 h 1.56424 v -10.20836 z m 0,14.61652 v 16.18983 h 1.56424 v -16.18983 z"
         id="path626" />
      <path
         style="color:#000000;display:inline;fill:#06263f;stroke-width:1.02929;-inkscape-stroke:none"
         d="m 162.99008,167.2801 v 5.72406 h 1.64762 v -5.72406 z m 0,8.34866 v 2.46146 h 1.64762 v -2.46146 z m 0,4.75798 v 34.56378 h 1.64762 v -34.56378 z m 0,37.34789 v 62.1782 h 1.64762 v -62.1782 z m 0,64.96229 v 12.85653 h 1.64762 v -12.85653 z m 0,14.82496 v 1.98476 h 1.64762 v -1.98476 z m 0,4.19972 v 5.65883 h 1.64762 v -5.65883 z"
         id="path627"
         sodipodi:nodetypes="ccccccccccccccccccccccccccccccccccc" />
      <path
         id="path637"
         style="color:#000000;display:inline;fill:#06263f;fill-opacity:1;stroke-width:3.89022;stroke-linecap:square;-inkscape-stroke:none"
         d="m 128.66565,167.87608 c -0.8052,-5.2e-4 -1.45807,0.65234 -1.45754,1.45754 4.9e-4,0.80448 0.65306,1.45623 1.45754,1.45569 0.80376,-4.9e-4 1.45518,-0.65193 1.45568,-1.45569 5.2e-4,-0.80446 -0.65121,-1.45703 -1.45568,-1.45754 z m 8.28165,21.82973 c -1.50976,-3.9e-4 -2.73375,1.22361 -2.73335,2.73335 6.2e-4,1.50903 1.22432,2.7319 2.73335,2.73151 1.50831,-6.2e-4 2.73088,-1.22318 2.7315,-2.73151 3.9e-4,-1.50903 -1.22248,-2.73273 -2.7315,-2.73335 z M 23.804334,198.1896 c -0.4229,-0.021 -0.845363,0.0491 -1.238728,0.20583 -1.51493,0.60506 -2.252254,2.32385 -1.646699,3.83856 0.605062,1.5139 2.322518,2.25103 3.836715,1.64669 1.51462,-0.60433 2.252662,-2.32199 1.648544,-3.8367 -0.428829,-1.07382 -1.444918,-1.79856 -2.599832,-1.85438 z m 78.367826,0.1502 c -1.42862,0 -2.596126,1.16751 -2.596126,2.59613 0,1.42865 1.167506,2.59797 2.596126,2.59797 1.42864,0 2.59613,-1.16932 2.59613,-2.59797 0,-1.42862 -1.16749,-2.59613 -2.59613,-2.59613 z m 0,0.93275 c 0.92711,0 1.66338,0.7363 1.66338,1.66338 0,0.92711 -0.73627,1.67264 -1.66338,1.67264 -0.92709,0 -1.67265,-0.74553 -1.67265,-1.67264 0,-0.92708 0.74556,-1.66338 1.67265,-1.66338 z m -68.037114,4.49872 c -0.389732,0.0113 -0.78445,0.0886 -1.166393,0.24107 -1.746076,0.69715 -2.603522,2.6933 -1.906295,4.43936 0.697115,1.74609 2.695139,2.60351 4.441228,1.90631 1.746048,-0.69714 2.603452,-2.69333 1.906295,-4.43937 -0.54467,-1.36413 -1.882901,-2.18559 -3.274835,-2.14737 z m 0.146501,1.21276 c 0.857306,0.0159 1.657812,0.53526 1.997165,1.38522 0.452378,1.13307 -0.09817,2.39778 -1.231306,2.85017 -1.13307,0.45237 -2.394065,-0.0889 -2.846471,-1.22202 -0.452349,-1.13312 0.08549,-2.40334 1.218335,-2.85574 0.283271,-0.1131 0.576499,-0.16294 0.862277,-0.15763 z m 90.574033,5.99728 c -0.99641,1.6e-4 -1.80414,0.80789 -1.80431,1.8043 -8.6e-4,0.99716 0.80715,1.80602 1.80431,1.80617 0.99788,8.8e-4 1.80704,-0.80828 1.80617,-1.80617 -1.5e-4,-0.99714 -0.80901,-1.80517 -1.80617,-1.8043 z m -109.464565,0.16667 c -0.282342,-0.0141 -0.56443,0.0327 -0.827054,0.13718 -1.009962,0.40337 -1.501507,1.54924 -1.097804,2.55903 0.40338,1.00997 1.549252,1.50152 2.55906,1.09781 1.008934,-0.40338 1.500253,-1.54792 1.097789,-2.55719 -0.28551,-0.71573 -0.962344,-1.19908 -1.731991,-1.23687 z m 95.355785,3.89604 c -2.87292,0 -5.22007,2.349 -5.22007,5.22193 0,2.87295 2.34715,5.22192 5.22007,5.22192 2.87297,0 5.22193,-2.34897 5.22193,-5.22192 0,-2.87293 -2.34896,-5.22193 -5.22193,-5.22193 z m 0,1.87478 c 1.86438,0 3.349,1.4828 3.349,3.34715 0,1.86436 -1.48462,3.36199 -3.349,3.36199 -1.86433,0 -3.36013,-1.49763 -3.36013,-3.36199 0,-1.86435 1.4958,-3.34715 3.36013,-3.34715 z m -4.10374,18.8553 c -1.44504,7e-5 -2.61646,1.1715 -2.61652,2.61654 6e-5,1.44503 1.17148,2.61648 2.61652,2.61654 1.44578,9.1e-4 2.61833,-1.17076 2.61838,-2.61654 -5e-5,-1.44576 -1.1726,-2.61749 -2.61838,-2.61654 z"
         sodipodi:nodetypes="ssssscccccccccccssssssssssssssssssssssccccccccsscsssssssssscscsc" />
      <path
         id="path546"
         style="color:#000000;fill:#06263f;fill-opacity:1;stroke-width:3.89021;stroke-linecap:square;stroke-linejoin:round;-inkscape-stroke:none;paint-order:stroke fill markers"
         d="M 28.414415,90.462642 27.705631,91.795 c 0,0 -0.999791,1.896233 -1.932531,4.277976 -0.932777,2.381743 -1.86158,5.203534 -1.529642,7.460944 0.220631,1.50134 1.271914,2.88307 2.223384,4.00714 0.95147,1.12411 1.86401,1.94593 1.86401,1.94593 l 0.702132,0.6436 0.06534,-0.0903 c 1.303375,4.43915 3.854592,8.30078 6.815661,11.9061 -3.20017,-0.10132 -6.909875,0.26948 -10.274469,1.04317 -0.08093,0.0195 -0.147199,0.0382 -0.227424,0.0569 -0.497701,-0.19605 -1.297905,-0.4972 -2.261884,-0.79074 -1.548204,-0.47143 -3.370193,-0.93838 -4.896509,-0.67538 -2.125558,0.36623 -4.368543,1.89743 -6.192077,3.31003 -1.823573,1.41263 -3.1846727,2.74833 -3.1846727,2.74833 l -1.0799381,1.05487 1.4594449,0.38617 c 0,0 2.0743779,0.54104 4.6056049,0.90942 2.5312,0.36834 5.491411,0.63292 7.614748,-0.20218 1.41215,-0.5555 2.512962,-1.89437 3.391963,-3.07598 0.705237,-0.94803 1.214109,-1.79427 1.394224,-2.10305 3.861372,-0.87469 8.447245,-1.58606 11.299253,-1.16354 4.596719,0.681 9.06862,2.21786 13.362186,4.26125 -1.19,-0.14428 -2.427322,-0.24166 -3.694546,-0.28759 -4.578923,-0.16562 -9.438112,0.32189 -13.141517,1.49787 -3.953235,1.25538 -8.189348,3.3462 -10.615513,6.96945 -1.969785,2.94167 -3.074248,6.73478 -2.905473,10.34303 h -0.0091 l 0.01624,0.21059 c 0.0091,0.13815 0.0226,0.27531 0.03325,0.41292 l 0.01948,0.22905 c 0.03234,0.38357 0.0743,0.86064 0.257508,1.55639 0.0326,0.14687 0.06118,0.29439 0.09872,0.43967 0.09573,0.37083 0.205419,0.72671 0.322521,1.07493 0.10158,0.41334 0.184402,0.84213 0.208992,1.27384 0.05404,0.94574 -0.159501,1.90892 -0.722202,2.57279 -0.562883,0.6639 -1.673815,1.17041 -2.44743,1.19196 -0.773589,0.0227 -1.471019,-0.36871 -2.340433,-0.88935 l -0.733892,-0.43967 -0.8793,1.4678 0.733893,0.43966 c 0.869375,0.52064 1.911526,1.17121 3.268223,1.13342 1.356697,-0.0378 2.768197,-0.691 3.70456,-1.79544 0.410046,-0.48363 0.69091,-1.02658 0.87096,-1.58983 1.159357,1.68191 2.636819,2.94221 4.269625,3.81158 2.840889,1.51259 6.117166,1.88381 9.085872,1.50453 2.87748,-0.36763 5.768391,-1.92868 7.97251,-4.16429 2.204094,-2.23559 3.737685,-5.18535 3.696209,-8.36533 -0.08573,-6.57154 -6.02021,-11.07091 -11.297564,-10.59549 -1.905266,0.17179 -3.66867,1.3496 -4.901549,2.95061 -1.232866,1.60108 -1.956535,3.68368 -1.554712,5.7742 0.38195,1.98725 1.282993,3.37451 2.464134,4.1576 0.347345,0.23032 0.713421,0.40199 1.088317,0.53161 l -0.0039,0.0162 0.182117,0.0434 c 0.221604,0.0676 0.444559,0.12132 0.670359,0.15883 0.606047,0.1443 1.120778,0.29116 1.41428,0.48481 0.296971,0.19604 0.479723,0.47898 0.516575,0.7473 0.03689,0.26817 -0.11353,0.67982 -0.2258,0.7957 -0.112231,0.11586 -0.392536,0.21061 -0.887704,0.31087 l -0.837537,0.1705 0.339369,1.67677 0.839213,-0.16886 c 0.495155,-0.10028 1.204029,-0.20705 1.777044,-0.79909 0.573028,-0.59198 0.803608,-1.39442 0.690416,-2.21839 -0.06534,-0.47585 -0.259769,-0.9053 -0.538268,-1.26717 0.815909,-0.26009 1.566676,-0.64781 2.189961,-1.1134 0.915579,-0.68386 1.649991,-1.54023 1.649991,-2.64134 v -0.85255 h -1.713511 v 0.85255 c 0,0.19539 -0.294711,0.76893 -0.966278,1.27055 -0.671555,0.50166 -1.630819,0.92839 -2.591161,1.06824 -0.453002,0.066 -0.897718,0.0682 -1.322378,0.004 l -0.551659,-0.13037 c -0.271745,-0.0877 -0.531357,-0.20607 -0.772329,-0.36612 -0.756118,-0.50129 -1.413632,-1.39488 -1.731931,-3.05088 -0.287904,-1.49755 0.241985,-3.12596 1.23206,-4.41172 0.990076,-1.28574 2.419593,-2.17194 3.696221,-2.28695 4.172697,-0.3759 9.361422,3.38154 9.433593,8.91538 0.03403,2.61064 -1.249493,5.1585 -3.203041,7.13997 -1.953561,1.9815 -4.563336,3.35707 -6.969471,3.66447 -2.669164,0.34096 -5.609878,-0.007 -8.067778,-1.314 -2.190869,-1.1665 -4.02308,-3.07299 -5.058659,-6.04167 -0.14299,-0.59256 -0.312831,-1.09899 -0.414605,-1.46442 -0.01299,-0.0521 -0.02273,-0.0892 -0.03494,-0.13716 -0.77603,-3.67915 0.230646,-8.15716 2.360477,-11.33769 2.075872,-3.10007 5.952312,-5.09879 9.711092,-6.2924 3.414903,-1.08441 8.156276,-1.5757 12.568126,-1.41596 4.081508,0.14784 7.910198,0.88979 10.095599,2.02447 3.319208,2.04399 6.496387,4.33318 9.472029,6.74542 4.97007,4.02898 10.940594,11.42666 15.945009,18.24534 -1.754507,-0.74166 -4.221967,-1.67118 -6.984501,-2.3605 -2.618517,-0.65336 -5.525873,-1.10583 -8.323557,-0.93784 l -0.453042,-0.0987 c 0,0 -1.310531,-0.28793 -2.918839,-0.46808 -1.608347,-0.18018 -3.489256,-0.31056 -4.941661,0.22742 -2.022653,0.74904 -3.944,2.66254 -5.478292,4.38495 -1.350709,1.51645 -2.089615,2.58284 -2.311999,2.89378 -0.25426,0.4715 -0.494726,0.723 -0.762392,1.41561 0.547074,0.20672 1.059103,0.23776 1.583212,0.32968 0.389171,0.0259 1.911955,0.14039 4.196065,0.0502 2.55588,-0.10093 5.514572,-0.38348 7.449245,-1.59315 1.286683,-0.80447 2.118791,-2.32188 2.76673,-3.64439 0.326938,-0.66724 0.587538,-1.29206 0.767315,-1.74862 2.609996,-0.19377 5.412655,0.20285 8.009285,0.85091 5.113384,1.27588 9.269765,3.4371 9.269765,3.4371 l 0.205757,0.10872 c 4.739152,6.65332 8.112073,12.00185 8.216601,12.16853 v 5.34287 c -0.0595,-0.14299 -0.113535,-0.28371 -0.177287,-0.42796 -1.705537,-3.86394 -4.447166,-8.08519 -8.64957,-9.68602 -2.477462,-0.94378 -5.108643,-1.48639 -7.815348,-1.28223 h -0.0013 c -2.706677,0.20412 -5.486799,1.15649 -8.276755,3.20973 -4.752128,3.49734 -6.253309,7.9332 -5.794253,12.42766 0.45564,4.461 3.649796,9.14229 7.967497,10.63391 2.222837,0.76789 4.920916,0.9384 7.430865,0.3795 2.509936,-0.55894 4.873049,-1.88057 6.173709,-4.176 1.62683,-2.87101 1.470279,-6.40074 -0.05014,-9.04242 -1.52051,-2.64167 -4.577495,-4.36723 -8.321882,-3.40533 -2.087926,0.5364 -3.549762,1.9425 -4.12918,3.61765 l -0.01299,-0.004 -0.03234,0.13199 c -0.04495,0.1417 -0.08495,0.28468 -0.117037,0.42964 -0.01624,0.0783 -0.0291,0.15819 -0.04338,0.23745 l -0.0091,0.0333 c -0.145888,0.60537 -0.273031,1.04585 -0.531604,1.35074 -0.258794,0.30507 -0.830913,0.61867 -1.200314,0.67204 -0.369414,0.0534 -0.659786,-0.0736 -0.822495,-0.22418 -0.162735,-0.15043 -0.296335,-0.44668 -0.459732,-0.90438 l -0.287605,-0.80581 -1.611529,0.57509 0.287592,0.80576 c 0.163683,0.45771 0.357165,1.07722 0.907773,1.58649 0.550556,0.50929 1.360308,0.78628 2.231762,0.66033 0.679634,-0.0983 1.321313,-0.39399 1.845577,-0.84255 0.372142,0.87559 0.986477,1.69284 1.852293,2.35882 l 0.682064,0.51826 1.043151,-1.35245 -0.675361,-0.52324 c -1.339524,-1.03039 -1.775199,-2.36165 -1.56978,-3.58924 l 0.117038,-0.48648 c 0.365854,-1.15315 1.332055,-2.16741 2.955638,-2.58448 3.084861,-0.79248 5.201819,0.49228 6.412785,2.59619 1.210952,2.10392 1.34524,5.05441 0.04495,7.34897 -0.999741,1.76443 -2.878247,2.85699 -5.055334,3.34179 -2.177062,0.4848 -4.612048,0.32936 -6.494698,-0.32091 -3.476305,-1.20094 -6.441803,-5.45222 -6.824012,-9.19455 -0.412177,-4.03526 0.747025,-7.67028 5.098784,-10.87296 5.125803,-3.77234 9.83617,-3.47162 14.468883,-1.70682 3.477085,1.32457 6.083782,5.12246 7.696664,8.7766 1.231268,2.78953 1.630272,5.29637 1.74362,8.27174 v 8.3269 0.85928 27.01856 h 1.711838 v -27.87778 c 7.47e-4,-3.27027 0.09573,-5.96293 0,-8.41216 v -13.90385 c 0.02272,-0.0779 1.342456,-4.75185 3.702919,-10.67903 0.239717,-0.60178 0.533752,-1.2488 0.794062,-1.87067 4.019231,-8.37776 13.891851,-12.89016 20.328271,-14.20972 4.69015,-0.96155 10.16655,0.29342 12.82556,3.46381 1.21921,1.45368 1.96857,2.94243 2.36382,4.41675 v 0.004 c 0.004,0.0162 0.009,0.0333 0.0162,0.0502 7.5e-4,0.004 7.4e-4,0.007 0.001,0.009 0.30246,1.15687 0.38753,2.30346 0.31088,3.41704 -0.17566,2.55256 -1.23538,4.92889 -2.58952,6.67187 -1.68023,2.16286 -4.617,3.7849 -7.17844,3.91187 -1.60741,0.0796 -3.34726,-0.12847 -4.82126,-0.78403 -1.47399,-0.65574 -2.68978,-1.72238 -3.41704,-3.49394 -0.70957,-1.72839 -0.79296,-4.15346 -0.0634,-6.19879 0.72934,-2.04533 2.17622,-3.69845 4.61901,-4.23283 1.78933,-0.39147 3.4937,-0.12289 4.79454,0.70717 1.30083,0.83013 2.24408,2.21715 2.4959,4.30303 0.26786,2.21815 -1.39814,4.02115 -3.0509,4.54877 -0.82638,0.26366 -1.56451,0.19831 -2.08468,-0.16369 -0.52018,-0.36176 -0.96645,-1.08294 -0.98632,-2.56444 l -0.007,-0.85423 -1.71184,0.0195 0.007,0.85925 c 0.0259,1.84283 0.6627,3.20758 1.71856,3.94195 1.05591,0.73438 2.38863,0.77561 3.58752,0.39286 2.39779,-0.76547 4.60606,-3.25447 4.22783,-6.38767 -0.30409,-2.51832 -1.54838,-4.43677 -3.27994,-5.54182 -1.73156,-1.10504 -3.90664,-1.40422 -6.07675,-0.92948 -3.04359,0.66583 -4.98339,2.85541 -5.86445,5.32615 -0.88105,2.47079 -0.80103,5.24085 0.0955,7.42416 0.89651,2.18383 2.50194,3.6038 4.30303,4.40505 1.80112,0.80126 3.78645,1.0176 5.59697,0.9278 3.18286,-0.15786 6.44526,-1.98798 8.44892,-4.56719 1.23372,-1.588 2.23702,-3.6057 2.69989,-5.85106 0.6718,1.50268 1.52669,2.84594 2.73995,3.84666 2.55889,2.11061 6.2849,2.40513 8.80503,1.26384 2.52013,-1.1413 3.45656,-3.72006 3.37692,-5.82765 -0.0796,-2.10765 -1.19488,-3.90104 -2.94395,-4.73606 -0.87452,-0.4175 -1.84861,-0.58841 -2.76169,-0.56502 -0.91309,0.0227 -1.77634,0.21513 -2.44577,0.75728 -0.66938,0.54215 -0.90362,1.36247 -0.92611,2.08633 -0.0227,0.72382 0.11522,1.43112 0.23583,2.09634 0.0848,0.46475 0.52987,0.77297 0.99467,0.68875 0.46475,-0.0847 0.77298,-0.52986 0.68877,-0.99465 -0.12042,-0.66524 -0.22289,-1.28708 -0.20899,-1.73693 0.013,-0.44987 0.0935,-0.64798 0.29245,-0.80915 0.19895,-0.16109 0.75777,-0.3593 1.41428,-0.37614 0.65651,-0.0162 1.39881,0.12068 1.97935,0.39789 1.16103,0.55428 1.91187,1.69312 1.97098,3.25654 0.0592,1.56341 -0.59295,3.39694 -2.3722,4.20271 -1.77929,0.80581 -5.06465,0.58082 -7.01126,-1.02474 -1.9466,-1.60556 -2.97387,-4.89291 -3.97371,-8.35032 -0.007,-0.013 -0.013,-0.0291 -0.0227,-0.0417 -0.46904,-1.69211 -1.3274,-3.39142 -2.67812,-5.00184 -3.23432,-3.85648 -9.25774,-5.11362 -14.47555,-4.04392 -4.85522,0.99539 -11.46284,3.61315 -16.45318,8.31356 1.64228,-3.08731 3.48024,-6.00551 5.45818,-8.29518 3.2167,-3.72364 7.55005,-7.43329 12.32071,-10.44831 0.53521,0.0508 1.27223,0.10613 2.07962,0.13036 1.6177,0.0488 3.49936,0.0291 4.9032,-0.6252 1.95501,-0.9111 3.71647,-2.97974 5.10549,-4.82128 1.38904,-1.84156 2.35045,-3.48725 2.35045,-3.48725 l 0.76398,-1.30062 -1.50957,0.013 c 0,0 -2.14333,0.013 -4.68252,0.32254 -2.53914,0.30862 -5.46729,0.8353 -7.29714,2.19831 -1.2169,0.90651 -1.92588,2.48415 -2.46412,3.85502 -0.5382,1.37084 -0.83421,2.56445 -0.83421,2.56445 l -0.0718,0.28436 c -3.2063,2.19133 -6.16449,4.69114 -8.79331,7.27205 -1.225,-3.47004 -2.41947,-7.00193 -4.95668,-10.83116 l -0.009,-0.40289 c 0,0 -0.033,-1.33911 -0.24069,-2.94395 -0.20897,-1.60485 -0.52701,-3.46237 -1.39589,-4.74436 -1.21018,-1.78541 -3.532979,-3.19257 -5.571869,-4.2713 -2.038891,-1.07874 -3.816559,-1.76868 -3.816559,-1.76868 l -1.402598,-0.55001 0.245838,1.49121 c 0,0 0.360038,2.1093 1.068274,4.56716 0.708281,2.45788 1.686834,5.26586 3.323379,6.85579 1.088397,1.05742 2.763795,1.50699 4.202765,1.8205 0.69041,0.15043 1.32118,0.25071 1.80043,0.31768 2.86464,4.09248 4.01063,7.79264 5.40809,11.70548 -0.97973,1.0293 -2.05695,2.28905 -3.00079,3.49664 -3.28932,4.20845 -5.991161,9.48491 -8.0778,14.47952 l -0.47328,1.11767 c -0.108332,0.26655 -0.24166,0.55355 -0.346046,0.81581 -2.048129,5.14281 -2.873337,8.09634 -3.221453,9.27643 -0.675175,-1.06768 -3.248399,-5.16068 -7.529507,-11.16051 l -0.131988,-0.18698 c -0.182779,-0.25555 -0.318976,-0.45788 -0.508222,-0.72054 -1.788085,-2.4836 -3.739815,-5.09374 -5.752414,-7.64318 l -0.155617,-0.20379 c -3.906446,-5.13614 -6.439972,-9.87447 -6.666876,-15.38666 -0.123922,-3.0126 0.838602,-6.16277 2.882066,-8.56096 1.998713,-2.34567 4.728863,-4.39921 9.401858,-3.91686 2.098838,0.21673 3.525342,1.05988 4.612294,2.24347 1.086967,1.18359 1.814405,2.737 2.312009,4.33313 0.420898,1.35006 0.446783,2.92697 0.153981,4.45685 l -0.120412,0.55332 c -0.372505,1.52414 -1.059079,2.96776 -1.997713,4.05061 -1.412566,1.62925 -4.138015,2.76503 -6.123569,2.30703 -1.851605,-0.42716 -3.849305,-2.47062 -4.13087,-4.30975 -0.294385,-1.92412 0.772096,-4.57459 2.596214,-5.37127 0.704458,-0.30765 1.977397,-0.14267 2.848643,0.48647 0.871297,0.62925 1.380649,1.50788 0.922788,2.92051 l -0.263964,0.81415 1.629949,0.5249 0.263977,-0.8158 c 0.665787,-2.05419 -0.215772,-3.86722 -1.553024,-4.83299 -1.33729,-0.96575 -3.091082,-1.29523 -4.537096,-0.66366 -2.76799,1.20891 -4.013287,4.50309 -3.600916,7.19682 0.41797,2.72996 2.787435,5.10544 5.43983,5.71732 2.760001,0.63668 5.793981,-0.67208 7.641494,-2.68649 0.01622,0.23293 0.04844,0.47207 0.09872,0.71885 0.256213,1.26557 0.898379,2.69418 2.208365,3.38697 1.309993,0.69276 2.822031,0.39168 3.791503,-0.46143 0.969449,-0.85312 1.061532,-2.06011 1.168541,-2.98739 l 0.09704,-0.85091 -1.700163,-0.19569 -0.09872,0.84919 c -0.107031,0.92726 -0.228721,1.5753 -0.596802,1.89913 -0.367984,0.32377 -1.3161,0.52203 -1.860631,0.23388 -0.54459,-0.28791 -1.151729,-1.32124 -1.33238,-2.21336 -0.180516,-0.8921 -0.03237,-1.66394 0.155617,-2.55105 0.151709,-0.72244 0.304075,-1.42215 0.456358,-2.11977 0.653469,-2.14516 0.727798,-4.48446 0.08027,-6.56156 -0.542931,-1.74153 -1.352525,-3.53435 -2.68483,-4.98512 -1.33234,-1.45076 -3.213691,-2.53025 -5.698947,-2.78679 -5.256622,-0.54261 -8.688373,1.92392 -10.887985,4.50533 -2.350435,2.75842 -3.41902,6.32837 -3.27829,9.74956 0.109374,2.65943 0.716136,5.14081 1.703522,7.53785 -3.166682,-3.07299 -4.547358,-4.20987 -6.770663,-6.04654 -2.412773,-6.53485 -3.37192,-12.48066 -2.455796,-17.73547 0.474904,-0.26558 1.135093,-0.6491 1.855632,-1.11838 1.356139,-0.88324 2.891834,-1.97326 3.671138,-3.3117 1.085355,-1.8639 1.349774,-4.56923 1.439363,-6.87419 0.08963,-2.30493 -0.0569,-4.20773 -0.0569,-4.20773 l -0.11353,-1.50457 -1.232047,0.87265 c 0,0 -1.755611,1.24127 -3.664448,2.9439 -1.908851,1.70266 -4.013118,3.80117 -4.737697,5.96478 -0.481918,1.43893 -0.164658,3.14103 0.17566,4.57384 0.340447,1.43284 0.777343,2.57781 0.777343,2.57781 l 0.165631,0.42965 c -0.645549,4.96295 0.263978,10.41257 2.173269,16.16233 -1.566455,-1.16139 -3.18179,-2.27683 -4.822974,-3.35519 l -2.843564,-1.78529 c -5.766299,-3.46139 -11.952504,-6.1654 -18.549573,-7.14832 -3.514638,-4.13712 -6.405575,-8.43677 -7.497737,-13.51265 0.258794,-0.39731 0.545996,-0.85201 0.850904,-1.37918 0.810259,-1.40095 1.680427,-3.06615 1.770393,-4.61231 0.125221,-2.15324 -0.858282,-4.684172 -1.820534,-6.780558 -0.96229,-2.096385 -1.952586,-3.726321 -1.952586,-3.726321 z m 0.107035,3.682819 c 0.360126,0.643811 0.544645,0.896286 1.073248,2.047889 0.916957,1.997636 1.755313,4.46903 1.668386,5.96304 -0.04625,0.79208 -0.638042,2.19867 -1.305622,3.42707 -0.06794,-0.82027 -0.09547,-1.65887 -0.06534,-2.52265 l -1.711835,-0.0569 c -0.05014,1.43438 0.03585,2.80754 0.237451,4.1292 -0.163047,-0.15916 -0.343356,-0.34605 -0.641951,-0.69878 -0.87244,-1.03069 -1.726124,-2.3792 -1.838913,-3.14621 -0.223852,-1.52318 0.534331,-4.308833 1.427672,-6.589966 0.556141,-1.419969 0.796152,-1.817531 1.156837,-2.552735 z m 40.310541,9.719469 c 0.0291,0.73573 0.08183,1.04023 0.03326,2.30364 -0.08547,2.19647 -0.453913,4.78517 -1.206991,6.07842 -0.447041,0.76775 -1.848475,1.91444 -3.121128,2.74331 -0.152369,0.0994 -0.271082,0.17211 -0.389523,0.24587 0.334174,-1.1324 0.756547,-2.23203 1.292255,-3.29164 l -1.522952,-0.77068 c -0.539826,1.06776 -0.964576,2.17148 -1.302283,3.30334 -0.311207,-1.31247 -0.466343,-2.89208 -0.220617,-3.62597 0.488907,-1.45983 2.424698,-3.60013 4.252869,-5.23088 1.136249,-1.01352 1.531928,-1.26349 2.184973,-1.75531 z m 26.145914,12.05987 c 0.677522,0.29212 0.972514,0.38102 2.091348,0.97296 1.942907,1.02795 4.113627,2.48252 4.953337,3.72129 0.49845,0.73544 0.929,2.49943 1.1251,4.00549 0.0291,0.22935 0.0514,0.41718 0.0686,0.58175 -0.8938,-1.1086 -1.87619,-2.23567 -3.06429,-3.40533 l -1.200284,1.21869 c 1.083534,1.06678 1.981404,2.08822 2.805164,3.09106 -1.294,-0.2931 -2.731343,-0.82594 -3.273273,-1.35244 -1.104191,-1.07279 -2.195368,-3.74946 -2.873689,-6.10353 -0.422191,-1.46515 -0.471009,-1.92694 -0.631919,-2.72994 z m -76.065578,7.30717 c 0.874389,-0.0291 2.235646,0.23679 3.440428,0.58178 -2.289488,0.61532 -3.890131,1.12671 -3.890131,1.12671 l 0.529928,1.63164 c 0,0 2.042839,-0.65586 4.851382,-1.37753 -0.09119,0.13587 -0.19669,0.28825 -0.352748,0.49819 -0.805972,1.08343 -1.919827,2.21877 -2.641327,2.50258 -1.432648,0.56353 -4.316168,0.45324 -6.74045,0.10028 -1.512105,-0.21999 -1.957757,-0.35879 -2.755025,-0.54332 0.54519,-0.49673 0.751519,-0.73196 1.755338,-1.50957 1.737724,-1.34613 3.960015,-2.7216 5.434815,-2.9757 0.109373,-0.0195 0.232593,-0.0324 0.36779,-0.0354 z m 113.596033,0.67872 c -0.39577,0.62237 -0.5308,0.90684 -1.29559,1.92082 -1.32367,1.75489 -3.10373,3.6642 -4.4602,4.29636 -0.71623,0.33377 -2.22041,0.4843 -3.61262,0.48146 1.28934,-0.71707 2.59402,-1.39629 3.91688,-1.98436 l -0.70212,-1.56639 c -1.82785,0.81251 -3.59265,1.77013 -5.30108,2.81686 0.0612,-0.1954 0.14202,-0.42683 0.28436,-0.78906 0.49349,-1.25693 1.27401,-2.64625 1.89575,-3.10941 1.23463,-0.91965 4.04438,-1.57507 6.47628,-1.87068 1.51537,-0.1844 1.98044,-0.16467 2.7985,-0.19573 z m -71.028647,29.95583 c 0.362933,-0.007 0.74709,-0.001 1.131754,0.0162 -1.135443,0.47208 -2.200573,1.11914 -3.161278,1.97929 l -0.638587,0.57008 1.14347,1.27553 0.6386,-0.56839 c 1.32234,-1.18402 2.938324,-1.89857 4.704274,-2.2702 -0.07313,0.18214 -0.165956,0.39545 -0.325989,0.72218 -0.59411,1.21261 -1.484113,2.53292 -2.141496,2.94393 -1.305375,0.81618 -4.162162,1.23728 -6.61002,1.33404 -1.524382,0.0602 -1.987166,0.001 -2.805205,-0.0333 0.4453,-0.5882 0.60532,-0.85476 1.447729,-1.80045 1.462056,-1.64138 3.391119,-3.40391 4.794526,-3.92358 0.416567,-0.1543 1.077224,-0.22999 1.822222,-0.24586 z"
         sodipodi:nodetypes="ccscsccccscssscccssscscscsccccscscsssccccsscsssscsssccccsssccccsscssccssscccssssssccscssscscsccscscccssscscccccsssssssssscccsccsssccccsscccccccsssssssssccccccccscssccscsssssssssccccccsssssssssscsssssssccsssssssscccscscccsccccssccccccsscccsssccscccccccccssssscccscssccccsssscsssccccsssscssssscccssscccssscccccccssscccscccccsssccssscccccsccscsccccsscsccccssccssscsscccccsccscccccccsscsssscsscc"
         inkscape:transform-center-x="14.11517"
         inkscape:transform-center-y="-65.897979" />
      <path
         inkscape:connector-curvature="0"
         id="path4234"
         d="m 68.430116,18.821019 9.117338,16.329131 v 3.664522 z"
         style="opacity:0.52;fill:#000000;fill-opacity:1;fill-rule:evenodd;stroke:none;stroke-width:0.357848" />
      <path
         inkscape:connector-curvature="0"
         id="path4236"
         d="M 94.140045,48.371767 85.023094,32.042625 v -3.664524 z"
         style="opacity:0.52;fill:#000000;fill-opacity:1;fill-rule:evenodd;stroke:none;stroke-width:0.357848" />
      <path
         id="path56466"
         style="display:inline;fill:#000000;stroke-width:1"
         d="m 122.56455,58.423749 c -0.17516,0 -0.26273,-0.162644 -0.26273,-0.487931 0,-0.200179 0.0542,-0.412868 0.16264,-0.638068 0.10843,-0.2252 0.26273,-0.3378 0.46291,-0.3378 0.16681,0 0.25022,0.09592 0.25022,0.287756 0,0.191837 -0.1543,0.512955 -0.46291,0.963354 z m -6.42905,3.828399 c 0.75067,0 1.33869,-0.35448 1.76407,-1.063444 0.36699,-0.625555 0.65057,-1.405414 0.85075,-2.339577 -1.50967,0.03336 -2.66904,0.608874 -3.47808,1.726532 -0.05,0.07507 -0.12929,0.08758 -0.23772,0.03754 -0.0584,-0.03336 -0.0751,-0.07507 -0.05,-0.125111 0.35866,-0.542148 0.8591,-1.005059 1.50133,-1.388733 0.64224,-0.375332 1.4221,-0.579681 2.33958,-0.613043 0.0918,-0.417038 0.17933,-0.904971 0.26274,-1.463801 0.0834,-0.558828 0.17932,-1.100975 0.28775,-1.626443 h -0.1126 c -1.08429,1.926711 -1.91003,2.890066 -2.47719,2.890066 -0.6339,0 -0.95085,-0.487933 -0.95085,-1.4638 0,-0.975866 0.20851,-1.955902 0.62555,-2.940109 0.41704,-0.992548 0.79654,-1.526355 1.13852,-1.601421 l 0.0751,-0.01251 c 0.14179,0 0.21269,0.09175 0.21269,0.275245 -0.0917,0.2252 -0.20852,0.521296 -0.35031,0.888289 -0.1418,0.358651 -0.32946,0.955014 -0.563,1.789088 -0.23354,0.825732 -0.35031,1.472139 -0.35031,1.939221 0,0.45874 0.10009,0.68811 0.30026,0.68811 0.23355,0 0.60888,-0.404526 1.126,-1.213577 0.75901,-1.184384 1.41793,-2.385451 1.97676,-3.603197 0.24188,-0.508786 0.50044,-0.763179 0.77569,-0.763179 0.17515,0 0.26273,0.09592 0.26273,0.287757 -0.15848,0.291926 -0.35031,0.838244 -0.57551,1.638954 -0.2252,0.80071 -0.4087,1.609762 -0.55049,2.427155 -0.14179,0.80905 -0.26273,1.442946 -0.36282,1.901688 0.6339,0.108429 1.00088,0.383673 1.10098,0.825732 0.0167,0.07507 0.025,0.175156 0.025,0.300267 0,0.133452 -0.05,0.246051 -0.15013,0.337799 -0.10009,0.100089 -0.18767,0.150133 -0.26273,0.150133 0.0167,-0.05839 0.0208,-0.162644 0.0125,-0.312777 -0.008,-0.141793 -0.0375,-0.262733 -0.0876,-0.362822 -0.0417,-0.100089 -0.12511,-0.204348 -0.25022,-0.312777 -0.12512,-0.10843 -0.28776,-0.187668 -0.48793,-0.237712 -0.64224,2.418814 -1.75574,3.62822 -3.34047,3.62822 -0.68394,0 -1.13851,-0.241881 -1.36371,-0.725643 -0.008,-0.02502 -0.0125,-0.04587 -0.0125,-0.06256 0,-0.05004 0.0459,-0.08341 0.13762,-0.100088 0.0834,-0.0083 0.14597,0.02085 0.18767,0.08758 0.15014,0.341971 0.50044,0.512956 1.05093,0.512956 z m -1.81,-2.089355 c -0.48376,0 -0.84242,-0.254392 -1.07595,-0.763176 -0.22521,-0.508785 -0.33781,-1.271963 -0.33781,-2.289534 0,-1.01757 0.15013,-2.222805 0.4504,-3.615708 0.30027,-1.392903 0.65058,-2.548095 1.05093,-3.465576 0.4087,-0.917481 0.76319,-1.376221 1.06345,-1.376221 0.14179,0 0.21269,0.08341 0.21269,0.250222 -0.17516,0.400355 -0.39619,1.005059 -0.66309,1.81411 -0.2669,0.80071 -0.4921,1.543036 -0.6756,2.226976 -0.17515,0.683941 -0.3378,1.484651 -0.48793,2.402132 -0.14179,0.917481 -0.21269,1.705681 -0.21269,2.364598 0,0.650578 0.0625,1.151023 0.18766,1.501334 0.13345,0.358651 0.31278,0.537977 0.53799,0.537977 0.19183,0 0.37533,-0.09175 0.55048,-0.275244 0.17516,-0.175155 0.30027,-0.35031 0.37534,-0.525466 0.0417,-0.09175 0.11677,-0.11677 0.2252,-0.07507 0.0417,0.01668 0.05,0.05004 0.025,0.100089 -0.0167,0.05839 -0.05,0.129282 -0.10009,0.212689 -0.0417,0.08341 -0.12094,0.212689 -0.23771,0.387844 -0.25022,0.392014 -0.54632,0.588022 -0.88829,0.588022 z m -3.41783,-7.894507 c 0.6339,0 0.95085,0.371163 0.95085,1.113489 0,0.425377 -0.1418,0.871606 -0.42538,1.338688 -0.48376,0.775688 -1.126,1.163533 -1.92671,1.163533 -0.12511,0 -0.22938,-0.02085 -0.31278,-0.06256 -0.0834,-0.0417 -0.14596,-0.104259 -0.18767,-0.187667 0.5922,0 1.13434,-0.34197 1.62644,-1.025911 0.40036,-0.550488 0.60054,-1.055102 0.60054,-1.513842 0,-0.341971 -0.13763,-0.512957 -0.41287,-0.512957 -0.55049,0 -1.06344,0.429549 -1.53887,1.288645 -0.50878,0.934162 -0.76317,1.893347 -0.76317,2.877554 0,0.834074 0.23771,1.334518 0.71313,1.501333 0.0918,0.03336 0.20852,0.05004 0.35031,0.05004 0.14179,0 0.29193,-0.03336 0.4504,-0.100088 0.15848,-0.07507 0.29193,-0.162645 0.40036,-0.262733 0.21686,-0.200178 0.39618,-0.421208 0.53798,-0.66309 0.0333,-0.06672 0.0959,-0.100088 0.18766,-0.100088 0.15014,0 0.22103,0.02502 0.21269,0.07507 -0.025,0.09175 -0.12094,0.246051 -0.28775,0.46291 -0.15848,0.21686 -0.30861,0.392015 -0.45041,0.525467 -0.13345,0.12511 -0.31278,0.23771 -0.53797,0.337799 -0.21686,0.10843 -0.43789,0.162645 -0.66309,0.162645 -0.88412,0 -1.44711,-0.417037 -1.689,-1.251111 -0.0751,-0.283584 -0.1126,-0.57551 -0.1126,-0.875777 0,-0.55883 0.12928,-1.167703 0.38784,-1.826621 0.4087,-1.000888 0.9717,-1.722361 1.68901,-2.16442 0.39201,-0.233542 0.79236,-0.350312 1.20106,-0.350312 z m -4.85661,0 c 0.6339,0 0.95085,0.371163 0.95085,1.113489 0,0.425377 -0.14179,0.871606 -0.42538,1.338688 -0.48376,0.775688 -1.126,1.163533 -1.92671,1.163533 -0.12511,0 -0.22937,-0.02085 -0.31277,-0.06256 -0.0834,-0.0417 -0.14597,-0.104259 -0.18768,-0.187667 0.5922,0 1.13435,-0.34197 1.62645,-1.025911 0.40036,-0.550488 0.60053,-1.055102 0.60053,-1.513842 0,-0.341971 -0.13762,-0.512957 -0.41287,-0.512957 -0.55048,0 -1.06344,0.429549 -1.53886,1.288645 -0.50878,0.934162 -0.76318,1.893347 -0.76318,2.877554 0,0.834074 0.23772,1.334518 0.71314,1.501333 0.0918,0.03336 0.20852,0.05004 0.3503,0.05004 0.1418,0 0.29193,-0.03336 0.45041,-0.100088 0.15847,-0.07507 0.29192,-0.162645 0.40035,-0.262733 0.21686,-0.200178 0.39619,-0.421208 0.53798,-0.66309 0.0333,-0.06672 0.0959,-0.100088 0.18767,-0.100088 0.15013,0 0.22103,0.02502 0.21268,0.07507 -0.025,0.09175 -0.12093,0.246051 -0.28775,0.46291 -0.15848,0.21686 -0.30861,0.392015 -0.4504,0.525467 -0.13345,0.12511 -0.31278,0.23771 -0.53798,0.337799 -0.21685,0.10843 -0.43788,0.162645 -0.66308,0.162645 -0.88412,0 -1.44712,-0.417037 -1.68901,-1.251111 -0.0751,-0.283584 -0.1126,-0.57551 -0.1126,-0.875777 0,-0.55883 0.12929,-1.167703 0.38785,-1.826621 0.40869,-1.000888 0.9717,-1.722361 1.689,-2.16442 0.39202,-0.233542 0.79237,-0.350312 1.20106,-0.350312 z m -4.09489,2.477199 c -0.31695,0 -0.47542,-0.34614 -0.47542,-1.038422 0,-0.392014 0.0751,-0.759006 0.2252,-1.100977 -0.56717,0.492104 -1.20107,1.409585 -1.901689,2.752443 -0.700626,1.334518 -1.050935,2.206125 -1.050935,2.614821 0,0.100089 -0.06673,0.150134 -0.20018,0.150134 -0.24188,0 -0.362816,-0.329459 -0.362816,-0.988378 0,-1.24277 0.125108,-2.36877 0.375331,-3.377998 0.250223,-1.009229 0.55466,-1.513843 0.913312,-1.513843 0.158472,0 0.237709,0.09175 0.237709,0.275243 -0.383674,1.217748 -0.658918,2.464689 -0.825734,3.740821 h 0.08758 c 0.675597,-1.559717 1.422092,-2.777465 2.239482,-3.653242 0.46708,-0.500444 0.89246,-0.750666 1.27614,-0.750666 0.0834,0 0.15013,0.02502 0.20017,0.07507 0.0584,0.05004 0.0876,0.1126 0.0876,0.187666 -0.0584,0.05839 -0.12928,0.145962 -0.21269,0.262733 -0.0834,0.11677 -0.19601,0.396185 -0.3378,0.838244 -0.14179,0.433718 -0.21269,0.90914 -0.21269,1.426265 0,0.06673 -0.0208,0.100089 -0.0625,0.100089 z M 91.657626,51.930488 c 0,0.617213 0.175151,0.946672 0.525468,0.988375 -0.02501,0.116771 -0.120944,0.175157 -0.287759,0.175157 -0.341974,0 -0.583854,-0.208519 -0.725647,-0.625556 -0.06673,-0.191836 -0.100087,-0.425377 -0.100087,-0.700622 0,-0.283585 0.10843,-0.621384 0.325288,-1.013398 0.492103,-0.909141 1.384565,-1.492993 2.67738,-1.751555 0.44206,-0.08341 0.913305,-0.125111 1.413751,-0.125111 0.508789,0 0.942505,-0.05004 1.301157,-0.150134 0.358653,-0.100089 0.604704,-0.212689 0.738155,-0.3378 0.350309,-0.325288 0.608875,-0.487932 0.77569,-0.487932 0.166815,0 0.250223,0.05004 0.250223,0.150132 v 0.07507 c -0.05841,0.233541 -0.308609,0.45457 -0.750669,0.663088 -0.266901,0.116771 -0.567167,0.208519 -0.900798,0.275245 -0.275244,0.11677 -0.504617,0.437888 -0.688111,0.963355 -0.183494,0.517125 -0.375331,1.267791 -0.575511,2.251999 0.433717,-0.0417 0.792369,-0.06256 1.07595,-0.06256 0.07507,0 0.108436,0.04587 0.100093,0.13762 -0.0334,0.10009 -0.120944,0.154304 -0.262737,0.162645 -0.141787,0 -0.471246,0.0417 -0.98837,0.125111 -0.392017,1.935051 -0.73399,3.302932 -1.025913,4.103643 -0.733983,2.026799 -1.780746,3.040198 -3.14029,3.040198 -0.975863,0 -1.584738,-0.446229 -1.826618,-1.338688 -0.09175,-0.308608 -0.137622,-0.617215 -0.137622,-0.925823 0,-0.583851 0.154301,-1.167703 0.46291,-1.751554 0.467081,-0.892458 1.080128,-1.338687 1.839132,-1.338687 0.108429,0 0.196008,0.02502 0.26273,0.07507 0.07507,0.05004 0.125115,0.125111 0.150137,0.2252 -0.717305,0 -1.309494,0.371163 -1.776575,1.113488 -0.366995,0.575511 -0.550489,1.171873 -0.550489,1.789088 0,0.900799 0.316945,1.451288 0.950841,1.651466 0.150137,0.0417 0.346138,0.06256 0.588025,0.06256 0.24188,0 0.496275,-0.07089 0.763176,-0.212689 0.275245,-0.133451 0.521296,-0.383673 0.738154,-0.750665 0.225202,-0.358652 0.408696,-0.658919 0.550489,-0.900801 0.141794,-0.250222 0.304438,-0.69228 0.487932,-1.326176 0.216858,-0.775688 0.400359,-1.492991 0.550489,-2.15191 0.150136,-0.667259 0.24188,-1.067614 0.275244,-1.201065 -0.467081,0.07507 -0.821562,0.112598 -1.063442,0.112598 -0.233544,0 -0.366995,-0.104259 -0.400359,-0.312777 -0.0083,-0.166815 0.03752,-0.262733 0.137622,-0.287755 0.04171,0.05004 0.170987,0.07507 0.387845,0.07507 0.225201,0 0.57551,-0.02085 1.050935,-0.06256 0.208515,-0.817392 0.408695,-1.48048 0.600532,-1.989264 0.191837,-0.517126 0.417038,-0.909141 0.675596,-1.176045 -0.13345,0.0083 -0.341966,0.01251 -0.625553,0.01251 -1.601424,0 -2.723252,0.471252 -3.365484,1.413757 -0.308609,0.442059 -0.46291,0.888288 -0.46291,1.338688 z m 5.504882,2.564776 c 0,0.0417 -0.03752,0.06256 -0.1126,0.06256 -0.07506,0 -0.15013,-0.01668 -0.225202,-0.05004 -0.06673,-0.03336 -0.100086,-0.07924 -0.100086,-0.137621 0,-0.850755 0.09592,-1.534696 0.287759,-2.051821 0.191837,-0.525467 0.446224,-0.7882 0.763176,-0.7882 0.08341,0 0.1543,0.02919 0.212687,0.08758 0.05841,0.05839 0.08758,0.137623 0.08758,0.237712 -0.375331,0.375333 -0.646411,0.934163 -0.813219,1.676489 -0.06673,0.308607 -0.100094,0.629725 -0.100094,0.963355 z m -12.13572,-1.826622 c 0.24188,0.183496 0.471253,0.275244 0.688111,0.275244 0.225202,0 0.383674,-0.02919 0.475425,-0.08758 0,0.108429 -0.05003,0.212688 -0.150137,0.312778 -0.09175,0.09175 -0.229373,0.137623 -0.412867,0.137623 -0.175158,0 -0.366995,-0.04171 -0.57551,-0.125111 -0.0167,0.784029 -0.145965,1.588909 -0.387845,2.414642 -0.24188,0.817393 -0.554661,1.505503 -0.938334,2.064332 -0.383674,0.550489 -0.763176,0.825733 -1.138507,0.825733 -0.375331,0 -0.66309,-0.145963 -0.863269,-0.437889 -0.208516,-0.325287 -0.312773,-0.788198 -0.312773,-1.388732 0,-0.34197 0.02082,-0.708963 0.06254,-1.100977 -1.034248,1.851644 -1.830789,2.777466 -2.389621,2.777466 -0.550489,0 -0.825733,-0.467082 -0.825733,-1.401244 0,-0.967526 0.237716,-2.001778 0.713133,-3.102755 0.400359,-0.875778 0.767347,-1.334518 1.100978,-1.376221 0.158479,0 0.237715,0.08758 0.237715,0.262733 -0.100093,0.241881 -0.225201,0.554659 -0.375338,0.938333 -0.150129,0.375334 -0.350309,0.980037 -0.600532,1.814111 -0.24188,0.834073 -0.362823,1.451287 -0.362823,1.851643 0,0.392014 0.08758,0.588022 0.262737,0.588022 0.216858,0 0.55466,-0.350312 1.013399,-1.050934 0.467081,-0.700621 0.875776,-1.401243 1.226085,-2.101865 l 0.537982,-1.038421 c 0.233537,-0.467082 0.44206,-0.700623 0.625554,-0.700623 0.183494,0 0.275244,0.08758 0.275244,0.262734 -0.508789,1.743213 -0.763176,3.106924 -0.763176,4.091132 0,0.45874 0.133451,0.68811 0.400353,0.68811 0.300266,0 0.613046,-0.246052 0.938334,-0.738155 0.33363,-0.500445 0.608875,-1.146851 0.825733,-1.939222 0.225201,-0.80071 0.337802,-1.58891 0.337802,-2.364599 v -0.07507 c -0.241887,-0.175155 -0.437888,-0.383673 -0.588025,-0.625555 -0.150129,-0.241882 -0.225201,-0.421207 -0.225201,-0.537977 0,-0.125111 0.05422,-0.237712 0.162644,-0.3378 0.108429,-0.100089 0.225201,-0.150134 0.350316,-0.150134 0.158472,0 0.300266,0.141793 0.425374,0.425379 0.125115,0.275243 0.208523,0.592191 0.250223,0.950843 z m -11.716845,5.667531 c -0.683939,0 -1.025913,-0.537978 -1.025913,-1.613933 0,-0.642236 0.15848,-1.347029 0.475425,-2.114378 0.442059,-1.075954 1.021742,-1.809937 1.739046,-2.201953 0.308608,-0.166815 0.596361,-0.250222 0.863262,-0.250222 0.266908,0 0.475424,0.05839 0.62556,0.175154 0.158473,0.116771 0.25856,0.233542 0.300266,0.350313 l 0.07507,0.162644 c -0.02501,0.141792 -0.09592,0.212689 -0.212687,0.212689 -0.133451,0 -0.212694,-0.02919 -0.237716,-0.08758 -0.0167,-0.06673 -0.03752,-0.12094 -0.06253,-0.162644 -0.02501,-0.05004 -0.0834,-0.1126 -0.175151,-0.187667 -0.09175,-0.08341 -0.196009,-0.125111 -0.312781,-0.125111 -0.542145,0 -1.034248,0.487932 -1.476308,1.463798 -0.500446,1.125999 -0.750669,2.185273 -0.750669,3.177821 0,0.500444 0.100094,0.750667 0.300266,0.750667 0.15848,0 0.37951,-0.175157 0.66309,-0.525467 0.29193,-0.358651 0.596367,-0.804882 0.913312,-1.338689 0.55049,-0.917481 0.99672,-1.714021 1.338686,-2.38962 0.283588,-0.600532 0.57551,-0.9008 0.875776,-0.9008 0.15848,0 0.237716,0.09592 0.237716,0.287755 -0.07507,0.158474 -0.170987,0.383675 -0.287759,0.6756 -0.116765,0.291926 -0.271073,0.871607 -0.46291,1.739045 -0.191836,0.867436 -0.287751,1.730701 -0.287751,2.589797 0,0.859097 0.12928,1.288645 0.387838,1.288645 0.100093,0 0.191836,-0.04587 0.275244,-0.137623 0.08341,-0.08341 0.15848,-0.212689 0.225201,-0.387844 0.02501,-0.09175 0.08341,-0.137622 0.175158,-0.137622 0.03333,0 0.05841,0.01252 0.07506,0.03754 0.0167,0.02502 0.0167,0.06673 0,0.125111 -0.0167,0.05839 -0.04591,0.137621 -0.08758,0.237711 -0.04171,0.10843 -0.133451,0.250222 -0.275244,0.425378 -0.133451,0.175154 -0.275245,0.262732 -0.425374,0.262732 -0.350309,0 -0.621388,-0.22937 -0.813226,-0.68811 -0.183493,-0.458741 -0.275244,-1.000889 -0.275244,-1.626444 0,-0.625555 0.04591,-1.226088 0.137629,-1.801598 h -0.125114 c -1.059271,1.80994 -1.855811,2.71491 -2.389621,2.71491 z m -1.86792,-3.590687 c -0.316944,0 -0.475416,-0.34614 -0.475416,-1.038422 0,-0.392014 0.07507,-0.759006 0.225193,-1.100977 -0.567167,0.492103 -1.201064,1.409585 -1.901682,2.752443 -0.700626,1.334517 -1.050935,2.206125 -1.050935,2.614821 0,0.100089 -0.06673,0.150133 -0.200179,0.150133 -0.24188,0 -0.362817,-0.329459 -0.362817,-0.988378 0,-1.24277 0.125109,-2.368769 0.375331,-3.377997 0.250223,-1.009229 0.55466,-1.513843 0.913312,-1.513843 0.158473,0 0.237709,0.09175 0.237709,0.275243 -0.383673,1.217748 -0.658918,2.464688 -0.825734,3.74082 h 0.08758 c 0.675597,-1.559717 1.422094,-2.777465 2.239485,-3.653242 0.467081,-0.500444 0.892461,-0.750666 1.276136,-0.750666 0.08341,0 0.150128,0.02502 0.200179,0.07507 0.05842,0.05004 0.08757,0.1126 0.08757,0.187666 -0.05841,0.05839 -0.129279,0.145963 -0.212687,0.262733 -0.08341,0.116771 -0.196008,0.396186 -0.337802,0.838245 -0.141793,0.433718 -0.212687,0.90914 -0.212687,1.426264 0,0.06673 -0.02082,0.10009 -0.06253,0.10009 z M 58.636764,52.355864 c -0.308607,0 -0.46291,-0.216859 -0.46291,-0.650578 0,-0.433718 0.225199,-0.917481 0.675599,-1.451287 0.750665,-0.900799 1.793258,-1.422095 3.127775,-1.563888 l 0.688112,-0.03754 c 1.518014,0 2.618991,0.604703 3.302932,1.81411 0.408696,0.742325 0.613047,1.59725 0.613047,2.564776 0,0.400355 -0.03333,0.821562 -0.100094,1.263621 -0.241879,1.484651 -0.81739,2.744103 -1.726531,3.778354 -1.000888,1.142682 -2.168591,1.714022 -3.50311,1.714022 -1.326176,0 -2.168591,-0.371163 -2.527243,-1.11349 -0.108429,-0.23354 -0.162644,-0.47959 -0.162644,-0.738153 0,-0.266905 0.07089,-0.546319 0.21269,-0.838245 0.275244,-0.533808 0.650577,-0.800711 1.126,-0.800711 0.04171,0 0.06673,0.02502 0.07506,0.07507 0.01669,0.0417 0.01251,0.08758 -0.01251,0.137622 -0.01668,0.05004 -0.04587,0.07507 -0.08758,0.07507 -0.283585,0 -0.529636,0.183496 -0.738155,0.550489 -0.133451,0.258562 -0.200176,0.496273 -0.200176,0.713133 0,0.216859 0.0417,0.417036 0.12511,0.600533 0.266905,0.56717 0.904971,0.850754 1.914199,0.850754 1.14268,0 2.176933,-0.583851 3.102755,-1.751554 0.834074,-1.050932 1.372051,-2.285361 1.613931,-3.703286 0.08341,-0.458741 0.125112,-0.892459 0.125112,-1.301155 0,-0.909141 -0.204348,-1.676489 -0.613043,-2.302044 -0.542148,-0.842414 -1.392904,-1.263621 -2.552266,-1.263621 -1.451289,0 -2.539755,0.487933 -3.265399,1.463799 -0.366992,0.500445 -0.550488,0.967526 -0.550488,1.401244 0,0.175156 0.03754,0.262733 0.112599,0.262733 -0.05004,0.166815 -0.154303,0.250222 -0.312777,0.250222 z m 1.801598,4.741709 c 0,-1.267792 0.112601,-2.498051 0.337802,-3.690775 0.2252,-1.201067 0.500443,-2.147741 0.825732,-2.840021 0.333629,-0.700623 0.654748,-1.050934 0.963355,-1.050934 0.133451,0 0.200177,0.06673 0.200177,0.200179 -0.375333,0.775688 -0.704792,1.809939 -0.988376,3.102753 -0.525466,2.360428 -0.788199,4.066109 -0.788199,5.117043 0,0.108429 -0.05839,0.162643 -0.175157,0.162643 -0.250221,0 -0.375334,-0.333629 -0.375334,-1.000888 z"
         inkscape:label="Inkscape tagline" />
      <path
         id="path8735"
         style="font-weight:bold;font-size:17.3333px;line-height:26px;font-family:'Linux Libertine O';-inkscape-font-specification:'Linux Libertine O Bold';letter-spacing:0px;word-spacing:0px;display:inline;fill:#000000;stroke-width:1"
         d="m 144.69349,33.9093 -2.31355,0.01977 c 0,0 -0.0197,-2.689256 0.0395,-4.310719 0.0198,-0.474574 0.25706,-0.870053 0.73164,-0.870053 h 3.08473 c 1.48304,0 1.77965,1.04802 2.21468,2.412422 0.23729,0.03955 0.27684,0 0.47458,-0.09887 -0.0989,-0.810732 -0.39548,-2.768352 -0.43503,-2.926545 0,-0.03954 -0.0198,-0.05932 -0.0791,-0.05932 -0.33615,0.05932 -0.51411,0.138419 -0.98869,0.138419 h -5.77399 c -0.59322,0 -1.58192,-0.0791 -2.57062,-0.09887 -0.11864,0.118644 -0.11864,0.336158 0,0.454801 1.38418,0.05932 1.64124,0.158192 1.70056,1.799429 0.0395,1.621462 0.0395,2.61016 0.0395,4.251397 0,1.641237 0,2.570612 -0.0395,4.192076 -0.0594,1.641235 -0.31638,1.740105 -1.70056,1.799427 -0.11864,0.118644 -0.11864,0.336157 0,0.454801 0.96893,-0.01977 2.01695,-0.09887 2.61016,-0.09887 h 4.38982 c 0.94915,0 2.53107,0.09887 2.53107,0.09887 0.27683,-0.988697 0.55367,-2.353099 0.71186,-3.36157 -0.19775,-0.118643 -0.21752,-0.158192 -0.47458,-0.09887 -0.39548,1.423723 -1.10734,2.847447 -2.61016,2.847447 h -3.08473 c -0.43503,0 -0.71187,-0.316382 -0.73164,-0.850279 -0.0593,-1.661011 -0.0395,-5.12145 -0.0395,-5.12145 l 2.31355,0.01977 c 1.68079,0.01977 1.75988,0.435026 1.8192,1.324854 0.11865,0.118643 0.31639,0.118643 0.43504,0 -0.0198,-0.692088 -0.0791,-0.929375 -0.0791,-1.542368 0,-0.65254 0.0593,-1.107341 0.0791,-1.700558 -0.11865,-0.118644 -0.31639,-0.118644 -0.43504,0 -0.0593,1.087566 -0.13841,1.324853 -1.8192,1.324853 z m -13.35915,1.20621 c 0.43503,0.138418 1.00848,0.177965 1.68079,0.177965 3.59886,0 4.6271,-2.254228 4.6271,-3.935014 0,-1.166661 -0.73164,-3.341796 -4.38982,-3.341796 -0.51411,0 -1.89829,0.197741 -2.68925,0.197741 -0.9887,0 -1.54237,-0.0791 -2.53107,-0.09887 -0.11864,0.118643 -0.11864,0.336157 0,0.4548 1.38418,0.05932 1.68079,0.158192 1.70057,1.799429 0.0198,1.641237 0.0395,2.61016 0.0395,4.251397 0,1.641237 0,2.550839 -0.0395,4.192076 -0.0396,1.66101 -0.31639,1.740105 -1.70057,1.799427 -0.11864,0.118644 -0.11864,0.336157 0,0.454801 0.96893,-0.01977 1.56215,-0.09887 2.57062,-0.09887 1.10734,0 1.8192,0.07909 2.8079,0.09887 0.11864,-0.118644 0.11864,-0.336157 0,-0.454801 -1.3644,-0.0791 -2.01694,-0.177965 -2.03672,-1.324853 -0.0198,-1.483045 -0.0395,-2.748579 -0.0395,-4.172302 z m 0.0395,-5.675121 c 0.0197,-0.573445 0.33615,-0.949148 1.75988,-0.949148 1.36439,0 2.76835,0.711861 2.76835,3.223151 0,2.135586 -1.08757,3.104509 -3.00564,3.104509 -0.47458,0 -1.30508,-0.03955 -1.56215,-0.09887 v -0.09887 c 0,-1.641237 0.0198,-3.539536 0.0396,-5.180773 z m -12.42237,6.031053 c -0.43502,0 -0.57344,-0.158192 -0.49434,-0.355932 l 2.07626,-5.121451 h 0.0593 l 1.8983,5.477383 z m -2.23445,4.132752 1.18643,-3.064961 c 0.0989,-0.25706 0.21752,-0.435026 0.69209,-0.435026 h 4.13276 l 1.24575,3.638405 c 0.27684,0.810731 -0.51412,0.810731 -1.46327,0.870053 -0.11864,0.118644 -0.11864,0.336157 0,0.454801 0.73164,-0.01977 1.81921,-0.09887 2.59039,-0.09887 0.81073,0 1.66101,0.07909 2.39265,0.09887 0.11864,-0.118644 0.11864,-0.336157 0,-0.454801 -0.77119,-0.05932 -1.42373,-0.138417 -1.77966,-1.146888 L 121.5814,27.957344 c -0.2966,0.177964 -0.77118,0.395479 -1.02824,0.395479 l -4.58756,10.79657 c -0.51411,1.206212 -1.10733,1.40395 -1.97739,1.463272 -0.11864,0.118644 -0.11864,0.336157 0,0.454801 0.73164,-0.01977 1.18644,-0.09887 1.95762,-0.09887 0.81073,0 1.40395,0.07909 2.13559,0.09887 0.11864,-0.118644 0.11864,-0.336157 0,-0.454801 -0.75141,-0.03955 -1.68078,-0.177965 -1.3644,-1.008471 z m -8.8269,1.562142 c 1.91807,0 3.87569,-0.909601 5.22032,-2.669482 -0.0989,-0.177965 -0.23729,-0.296609 -0.4548,-0.296609 -1.40396,1.542367 -2.74858,2.15536 -4.58756,2.15536 -3.06496,0 -4.60732,-3.104509 -4.60732,-5.991505 0,-3.223152 2.05649,-5.872859 4.548,-5.872859 2.72881,0 3.89546,1.819202 4.40959,3.519761 0.17796,0.01977 0.29661,0 0.4548,-0.09887 -0.0989,-1.028245 -0.23729,-1.977394 -0.43503,-3.06496 -1.00847,-0.09887 -1.8983,-0.889828 -4.33049,-0.889828 -3.91524,0 -6.42653,3.06496 -6.42653,6.782461 0,3.499987 1.95762,6.426531 6.20902,6.426531 z M 99.162448,28.491241 c -1.146886,-0.158192 -1.087567,-0.533897 -3.025412,-0.533897 -1.997171,0 -3.757045,1.324853 -3.757045,3.420891 0,1.85875 1.305076,2.748578 2.847441,3.401118 1.245765,0.55367 3.302254,0.988697 3.302254,3.242927 0,1.601689 -0.949149,2.629934 -2.511295,2.629934 -1.858746,0 -3.24292,-1.028245 -3.677953,-3.005639 -0.237282,-0.07909 -0.257062,-0.03955 -0.435025,0.05932 0.0791,1.522594 0.15819,2.036716 0.395479,3.005639 1.245758,0 1.779655,0.454801 3.539536,0.454801 0.909604,0 1.759882,-0.217514 2.451969,-0.632766 1.127113,-0.711863 1.858753,-1.937846 1.858753,-3.203379 0,-1.878524 -1.28531,-2.76835 -2.728804,-3.381343 -0.949149,-0.395479 -3.677953,-1.166663 -3.677953,-3.104509 0,-1.10734 1.048014,-2.41242 2.194907,-2.41242 1.937845,0 2.748577,1.423724 3.144056,2.728804 0.217509,0 0.257062,0.01977 0.435026,-0.118644 -0.05935,-0.949149 -0.138418,-1.50282 -0.355934,-2.550837 z M 82.384573,38.813238 c -0.03955,-1.581916 -0.05935,-2.491517 -0.05935,-4.053659 0.692088,0.01977 1.384175,0.336157 1.799435,0.850279 l 3.104503,3.915241 c 0.39548,0.514122 0.672315,1.107341 0.71186,1.423723 0,0.05932 0.01981,0.118644 0.09887,0.118644 0.39548,-0.01977 0.355934,-0.09887 0.949149,-0.09887 0.771187,0 1.265531,0.07909 2.194907,0.09887 0.118645,-0.118644 0.118645,-0.336157 0,-0.454801 -0.355926,-0.05932 -1.26553,-0.25706 -1.937844,-1.087566 l -4.330495,-5.141225 c -0.158191,-0.177966 -0.257062,-0.336156 -0.257062,-0.494348 0,-0.138418 0.01974,-0.276835 0.692087,-0.968923 l 2.906774,-2.985865 c 0.909604,-0.968923 1.898299,-1.265532 2.689251,-1.364402 0.118645,-0.118643 0.118645,-0.336157 0,-0.4548 -0.929369,0.01977 -1.285303,0.09887 -2.076262,0.09887 -0.790959,0 -1.403948,-0.0791 -2.333324,-0.09887 -0.118645,0.118643 -0.118645,0.336157 0,0.4548 0.71186,0.05932 1.562145,0.395479 0.751413,1.285307 l -3.163829,3.480213 c -0.41526,0.4548 -1.067794,0.810731 -1.799435,0.870052 0,-1.384174 0.01974,-2.333325 0.05935,-3.836143 0.03955,-1.641237 0.336154,-1.740108 1.720328,-1.799429 0.118645,-0.118643 0.118645,-0.336157 0,-0.4548 -0.968922,0.01977 -1.581911,0.09887 -2.590386,0.09887 -0.988695,0 -1.542365,-0.0791 -2.53106,-0.09887 -0.118645,0.118643 -0.118645,0.336157 0,0.4548 1.384174,0.05932 1.661009,0.158192 1.700555,1.799429 0.03955,1.641237 0.0791,2.61016 0.0791,4.251397 0,1.641237 -0.03955,2.550839 -0.0791,4.192076 -0.03955,1.641235 -0.316381,1.740105 -1.700555,1.799427 -0.118645,0.118644 -0.118645,0.336158 0,0.454801 0.968922,-0.01977 1.562138,-0.09887 2.570613,-0.09887 0.988695,0 1.562138,0.0791 2.550833,0.09887 0.118645,-0.118643 0.118645,-0.336157 0,-0.454801 -1.384174,-0.05932 -1.680782,-0.158192 -1.720328,-1.799427 z m -7.092974,-8.225959 0.01974,6.861555 c 0,0.375706 -0.09887,0.59322 -0.237288,0.59322 -0.158191,0 -0.375708,-0.355931 -0.94915,-1.087567 L 67.342441,28.214406 64.7916,28.17486 c -0.118646,0.118644 -0.118646,0.336157 0,0.4548 0.949147,0.05933 1.443496,0.692089 1.661011,1.463273 l -0.01974,8.502794 c 0,1.759881 -0.336159,1.878524 -1.720336,2.016941 -0.118643,0.118644 -0.118643,0.336157 0,0.454801 0.968923,-0.01977 1.305081,-0.09887 2.135588,-0.09887 0.830505,0 1.127113,0.07909 2.115809,0.09887 0.118643,-0.118644 0.118643,-0.336157 0,-0.454801 -1.384176,-0.138417 -1.720329,-0.217514 -1.720329,-2.016941 l -0.01981,-6.307888 c 0,-0.672313 0.09887,-0.968923 0.257062,-0.968923 0.118644,0 0.33616,0.217514 0.672314,0.65254 l 6.901108,8.720309 c 0.217509,0.296609 0.474572,0.474573 0.79096,0.474573 0.276834,0 0.237289,-0.237286 0.237289,-0.612992 l 0.01981,-9.966064 c 0,-1.759883 0.336153,-1.878526 1.720327,-2.016943 0.118645,-0.118643 0.118645,-0.336157 0,-0.454801 -0.968922,0.01977 -1.305075,0.09887 -2.135579,0.09887 -0.830512,0 -1.127121,-0.0791 -2.115815,-0.09887 -0.118646,0.118644 -0.118646,0.336158 0,0.454801 1.384174,0.138417 1.720335,0.217513 1.720335,2.016943 z m -13.607871,8.225959 c -0.03955,-1.621464 -0.05932,-2.531065 -0.05932,-4.172302 0,-1.641238 0,-2.61016 0.05932,-4.271171 0.03955,-1.641237 0.316384,-1.700559 1.700559,-1.799429 0.118643,-0.118643 0.118643,-0.336157 0,-0.4548 -0.731636,0.03955 -1.957621,0.09887 -2.550839,0.09887 -0.593218,0 -1.937845,-0.05933 -2.570611,-0.09887 -0.118644,0.118643 -0.118644,0.336157 0,0.4548 1.384175,0.118644 1.700559,0.158192 1.740105,1.799429 0.03955,1.641237 0.05932,2.61016 0.05932,4.251397 0,1.641237 -0.01977,2.550839 -0.05932,4.192076 -0.03954,1.641235 -0.35593,1.740105 -1.740105,1.799427 -0.118644,0.118644 -0.118644,0.336157 0,0.454801 0.771182,-0.03955 1.977393,-0.09887 2.570611,-0.09887 0.593218,0 1.740108,0.03955 2.550839,0.09887 0.118643,-0.118644 0.118643,-0.336157 0,-0.454801 -1.384175,-0.05932 -1.66101,-0.158192 -1.700559,-1.799427 z M 153.21904,26.801337 c 0,0.294302 -0.11516,0.371076 -0.30709,0.371076 h -0.26871 v -0.479839 c 0,-0.115161 0.096,-0.217527 0.25591,-0.217527 0.21753,0 0.31989,0.108763 0.31989,0.32629 z m -0.72295,-0.467043 c -0.10237,0 -0.29431,-0.0064 -0.40947,-0.0128 -0.0256,0.02559 -0.0256,0.127958 0,0.153549 0.20474,0.01919 0.25592,0.05758 0.25592,0.262312 v 0.946882 c 0,0.204732 -0.0512,0.243119 -0.25592,0.262313 -0.0256,0.02559 -0.0256,0.127957 0,0.153548 0.11516,-0.0064 0.3071,-0.0128 0.40947,-0.0128 0.10236,0 0.2879,0.0064 0.40306,0.0128 0.0256,-0.02559 0.0256,-0.127957 0,-0.153548 -0.20473,-0.01919 -0.25591,-0.05758 -0.25591,-0.262313 v -0.358279 c 0.032,0 0.21113,0.0064 0.23672,0.02559 l 0.30709,0.511829 c 0.10877,0.185538 0.26232,0.243118 0.39028,0.243118 0.0768,0 0.15355,-0.0128 0.23032,-0.04479 0.007,-0.03839 0,-0.08317 -0.0256,-0.108763 -0.10236,0.01919 -0.20472,-0.03199 -0.2751,-0.153549 l -0.3071,-0.524624 c 0.19834,-0.06398 0.36468,-0.223925 0.36468,-0.473442 0,-0.191935 -0.12796,-0.479839 -0.6078,-0.479839 -0.12795,0 -0.35828,0.0128 -0.46064,0.0128 z m 0.36468,2.6871 c 0.99806,0 1.80419,-0.812528 1.80419,-1.810594 0,-0.998065 -0.80613,-1.804195 -1.80419,-1.804195 -0.99807,0 -1.8106,0.80613 -1.8106,1.804195 0,0.991668 0.80613,1.810594 1.8106,1.810594 z m 0,-3.416456 c 0.88929,0 1.60585,0.71656 1.60585,1.605862 0,0.889302 -0.72295,1.605862 -1.60585,1.605862 -0.8957,0 -1.61226,-0.722958 -1.61226,-1.605862 0,-0.889302 0.71656,-1.605862 1.61226,-1.605862 z"
         inkscape:label="Inkscape logotype" />
      <path
         id="path56474"
         style="display:inline;fill:#000000;fill-opacity:1;fill-rule:evenodd;stroke-width:1"
         d="m 35.244288,29.696996 5.135794,5.215995 c 0.487006,0.497635 0.480242,1.461985 0.207751,1.739308 l -2.55002,-2.039822 -0.501501,3.020599 -2.130654,-1.124752 -3.411945,2.155775 -1.129585,-4.544426 -1.833038,3.171339 h -2.80222 c -1.142146,0 -1.276459,-1.449424 -0.238672,-2.487212 1.812747,-1.956722 3.893154,-3.951129 5.023705,-5.106804 1.136349,-1.161471 3.116261,-1.128618 4.230385,0 z M 26.97001,49.13184 c 0.346895,0.215481 5.593811,1.281291 6.876068,1.493873 0.44449,0.09373 0.129482,0.551748 -0.483143,0.860958 -1.381784,0.367187 -8.08392,-2.354831 -6.392925,-2.354831 z m 18.017308,5.238219 c 0,0.659004 4.855571,1.090933 4.855571,-0.155572 -0.691858,-2.002138 -4.281599,-1.866858 -4.855571,0.155572 z m -21.872777,3.501808 c 1.149876,0.994306 2.925904,-0.247368 3.458326,-1.63495 -1.114124,-1.480345 -5.2846,0.05314 -3.458326,1.63495 z M 44.37856,55.723821 c -1.482278,1.329605 0.1662,2.678536 1.62722,1.81951 0.325637,-0.330468 -0.0087,-1.489041 -1.62722,-1.81951 z M 30.076609,28.7655 17.095566,42.048988 c -4.385958,5.431475 2.984848,4.799526 6.144592,6.363938 1.13345,1.158573 -4.344407,2.013733 -3.210958,3.173273 1.13345,1.158572 6.853845,2.232113 7.989226,3.390685 1.13345,1.158573 -2.320045,2.387685 -1.186595,3.546258 1.13345,1.158573 3.754974,0.06087 4.245847,2.735546 0.349794,1.911307 4.724156,0.82134 6.863506,-0.744038 1.133449,-1.159539 -2.168338,-1.050349 -1.034888,-2.208922 2.818646,-2.882421 5.44307,-1.047451 6.40742,-3.935669 0.476378,-1.4272 -4.149218,-2.200226 -3.013835,-3.358799 3.261204,-1.904543 14.532893,-3.144284 9.184518,-8.492659 L 36.028911,28.7655 c -0.82279,-0.789936 -1.920729,-1.189253 -3.008039,-1.191427 -1.087309,-0.0022 -2.16399,0.392794 -2.944263,1.191427 z"
         inkscape:label="Inkscape logo" />
      <path
         id="text4-36-7"
         style="-inkscape-font-specification:'Linux Libertine O';display:inline;fill:#000000;stroke-width:1.49966"
         d="m 124.95626,72.917994 c -0.33537,0 -0.90545,0.135469 -1.67682,0.504386 -2.04577,0.939047 -4.32609,1.743847 -7.24384,2.951193 0,0.570135 0.26829,1.105345 0.7378,1.440719 1.81103,-0.771359 3.01827,-0.837066 3.48779,-0.837066 0.43599,0 0.63852,0.134096 0.63852,1.810959 v 10.495517 c 0,2.783605 -1.61102,2.917653 -3.45557,3.018266 -0.33538,0.201223 -0.33538,0.939012 0,1.140237 0,0 4.32747,-0.06708 5.66897,-0.06708 1.3415,0 2.84915,0.03354 5.59922,0.06708 0.33537,-0.201226 0.33537,-0.939014 0,-1.140237 -1.84456,-0.100619 -3.4529,-0.234661 -3.4529,-3.018266 V 77.178444 c 0,-1.77748 0.26829,-3.68899 0.26829,-3.68899 0,-0.435986 -0.26963,-0.571459 -0.57146,-0.57146 z m 23.30907,0 c -2.58237,3.051904 -6.1706,8.854785 -8.92066,12.979885 -0.10069,0.13415 -0.2361,0.334017 -0.2361,0.43463 0,0.13415 0.26829,0.403764 0.46952,0.772676 l 0.50437,0.603653 c 0.16769,0.167686 0.30314,0.233412 1.10805,0.233412 h 5.93458 v 1.341452 c 0,2.783605 -1.27298,2.917653 -3.11753,3.018266 -0.33537,0.201222 -0.33537,0.939011 0,1.140237 0,0 3.89017,-0.06709 5.23166,-0.06709 1.3415,0 2.41452,0.03354 5.16458,0.06709 0.33537,-0.201226 0.33537,-0.939015 0,-1.140237 -1.84455,-0.10062 -3.12021,-0.234661 -3.12021,-3.018266 V 87.94225 h 2.81705 c 0.46952,0 0.9739,-0.635834 0.9739,-1.038284 0,-0.335373 -0.13558,-0.536579 -0.5044,-0.536579 h -3.28655 V 72.917994 Z m -1.14024,3.656797 v 9.792596 h -6.17068 c 1.67688,-2.783605 4.3932,-7.377903 6.17068,-9.792596 z m -56.73266,6.111653 c -0.148327,0.148321 -0.148327,0.691427 0,0.839748 1.409031,0.173041 1.458167,0.668856 1.977295,1.904861 l 3.238261,7.809933 c 0.148327,0.370799 0.569363,0.520484 0.890727,0.520484 0.247202,0 0.740684,-0.04965 0.96316,-0.568774 L 100.84769,85.4552 c 0.4944,-1.112405 0.81738,-1.805407 2.12755,-1.929007 0.14832,-0.148321 0.14832,-0.691428 0,-0.839749 -0.54384,0.02473 -1.33686,0.0483 -1.88072,0.0483 -0.91464,0 -1.827662,-0.02358 -2.495103,-0.0483 -0.148312,0.148321 -0.148312,0.691428 0,0.839749 1.334882,0.09887 1.482863,0.496576 0.939025,1.757301 l -1.953161,4.523374 c -0.0989,0.247202 -0.197378,0.04963 -0.246817,-0.123408 l -1.582921,-4.399961 c -0.42024,-1.186565 -0.765903,-1.608981 0.791454,-1.757301 0.148327,-0.148321 0.148327,-0.691428 0,-0.839749 -0.914629,0.02473 -1.903544,0.0483 -3.114839,0.0483 -0.865205,0 -2.125099,-0.02358 -3.039728,-0.0483 z m 43.92179,6.363845 c -1.34148,0 -2.48168,1.071776 -2.48168,2.379735 0,1.274419 1.07312,2.280469 2.41462,2.280469 1.34149,0 2.48168,-1.07312 2.48168,-2.347542 0,-1.307958 -1.07313,-2.312661 -2.41462,-2.312662 z m -29.51193,1.226088 c -0.9888,0 -1.82705,0.790533 -1.82705,1.754617 0,0.939367 0.78995,1.6795 1.77876,1.6795 0.9888,0 1.82973,-0.791108 1.82973,-1.730474 0,-0.964084 -0.79263,-1.703643 -1.78144,-1.703643 z"
         inkscape:label="Version Number" />
    </g>
  </g>
</svg>
