<!-- Created with Inkscape (http://www.inkscape.org/) -->
<svg xmlns:dc="http://purl.org/dc/elements/1.1/"
  xmlns:cc="http://creativecommons.org/ns#"
  xmlns:rdf="http://www.w3.org/1999/02/22-rdf-syntax-ns#"
  xmlns:svg="http://www.w3.org/2000/svg"
  xmlns="http://www.w3.org/2000/svg"
  xmlns:xlink="http://www.w3.org/1999/xlink"
  xmlns:sodipodi="http://sodipodi.sourceforge.net/DTD/sodipodi-0.dtd"
  xmlns:inkscape="http://www.inkscape.org/namespaces/inkscape" width="412.29788mm" height="582.05017mm" viewBox="0 0 412.29789 582.05017" version="1.1" id="svg8" inkscape:version="0.92.4 (5da689c313, 2019-01-14)" sodipodi:docname="interp_shapes.svg">
  <defs id="defs2">
    <linearGradient id="linearGradient877" inkscape:collect="always">
      <stop id="stop873" offset="0" style="stop-color:#008000;stop-opacity:1"/>
      <stop style="stop-color:#7b0000;stop-opacity:1" offset="0.48378384" id="stop879"/>
      <stop id="stop875" offset="1" style="stop-color:rgb(0, 0, 255);stop-opacity:1"/>
    </linearGradient>
    <linearGradient inkscape:collect="always" id="linearGradient845">
      <stop style="stop-color:#008000;stop-opacity:1" offset="0" id="stop841"/>
      <stop style="stop-color:blue;stop-opacity:1" offset="1" id="stop843"/>
    </linearGradient>
    <linearGradient inkscape:collect="always" xlink:href="#linearGradient845" id="linearGradient847" x1="13.096875" y1="138.45702" x2="13.096875" y2="104.24652" gradientUnits="userSpaceOnUse" gradientTransform="translate(4.47014, 54.8796)"/>
    <linearGradient inkscape:collect="always" xlink:href="#linearGradient845" id="linearGradient855" x1="184.80772" y1="102.37889" x2="184.80772" y2="136.77472" gradientUnits="userSpaceOnUse" gradientTransform="translate(151.224, 57.4921)"/>
    <linearGradient inkscape:collect="always" xlink:href="#linearGradient845" id="linearGradient863" x1="-1.3985118" y1="176.12321" x2="40.708035" y2="176.12321" gradientUnits="userSpaceOnUse" gradientTransform="translate(-1.95545, 127.316)"/>
    <linearGradient inkscape:collect="always" xlink:href="#linearGradient877" id="linearGradient871" x1="175.11636" y1="193.24553" x2="205.50565" y2="154.314" gradientUnits="userSpaceOnUse" gradientTransform="translate(155.045, 129.47)"/>
    <radialGradient inkscape:collect="always" xlink:href="#linearGradient877" id="radialGradient887" cx="16.167852" cy="249.2552" fx="16.167852" fy="249.2552" r="36.377525" gradientTransform="matrix(1 0 0 0.997651 1.53145 204.301)" gradientUnits="userSpaceOnUse"/>
    <radialGradient inkscape:collect="always" xlink:href="#linearGradient845" id="radialGradient897" cx="193.54523" cy="249.20023" fx="193.54523" fy="249.20023" r="39.397575" gradientTransform="matrix(1 0 0 1.02433 150.677 197.708)" gradientUnits="userSpaceOnUse"/>
    <svg:linearGradient id="linearGradient5815">
      <svg:stop style="stop-color:#000000;stop-opacity:1.0" offset="0.0"/>
      <svg:stop style="stop-color:#000000;stop-opacity:1.0" offset="1.0"/>
    </svg:linearGradient>
    <linearGradient x1="9.72092px" x2="25.5959px" y1="57.2939px" y2="57.2939px" xlink:href="#linearGradient5815" id="linearGradient8555"/>
    <svg:linearGradient gradientTransform="translate(0.745024, 9.1466)" id="linearGradient5392">
      <svg:stop style="stop-color:#001500;stop-opacity:1.0" offset="0.0"/>
      <svg:stop style="stop-color:#00002a;stop-opacity:1.0" offset="1.0"/>
    </svg:linearGradient>
    <linearGradient x1="10.2836px" x2="23.5127px" y1="70.821px" y2="65.1193px" gradientTransform="translate(0.745024, 9.1466)" xlink:href="#linearGradient5392" id="linearGradient9603"/>
    <svg:linearGradient gradientTransform="translate(1.49005, 18.2932)" id="linearGradient4306">
      <svg:stop style="stop-color:#002a00;stop-opacity:1.0" offset="0.0"/>
      <svg:stop style="stop-color:#000055;stop-opacity:1.0" offset="1.0"/>
    </svg:linearGradient>
    <linearGradient x1="10.8462px" x2="21.4296px" y1="84.3482px" y2="72.9447px" gradientTransform="translate(1.49005, 18.2932)" xlink:href="#linearGradient4306" id="linearGradient7856"/>
    <svg:linearGradient gradientTransform="translate(2.23507, 27.4398)" id="linearGradient5654">
      <svg:stop style="stop-color:#004000;stop-opacity:1.0" offset="0.0"/>
      <svg:stop style="stop-color:#00007f;stop-opacity:1.0" offset="1.0"/>
    </svg:linearGradient>
    <linearGradient x1="11.4089px" x2="19.3464px" y1="97.8754px" y2="80.7702px" gradientTransform="translate(2.23507, 27.4398)" xlink:href="#linearGradient5654" id="linearGradient6457"/>
    <svg:linearGradient gradientTransform="translate(2.9801, 36.5864)" id="linearGradient2304">
      <svg:stop style="stop-color:#005500;stop-opacity:1.0" offset="0.0"/>
      <svg:stop style="stop-color:#0000aa;stop-opacity:1.0" offset="1.0"/>
    </svg:linearGradient>
    <linearGradient x1="11.9716px" x2="17.2632px" y1="111.403px" y2="88.5956px" gradientTransform="translate(2.9801, 36.5864)" xlink:href="#linearGradient2304" id="linearGradient5347"/>
    <svg:linearGradient gradientTransform="translate(3.72512, 45.733)" id="linearGradient266">
      <svg:stop style="stop-color:#006a00;stop-opacity:1.0" offset="0.0"/>
      <svg:stop style="stop-color:#0000d4;stop-opacity:1.0" offset="1.0"/>
    </svg:linearGradient>
    <linearGradient x1="12.5342px" x2="15.18px" y1="124.93px" y2="96.4211px" gradientTransform="translate(3.72512, 45.733)" xlink:href="#linearGradient266" id="linearGradient5447"/>
    <svg:linearGradient gradientTransform="translate(4.47014, 54.8796)" id="linearGradient4780">
      <svg:stop style="stop-color:#008000;stop-opacity:1.0" offset="0.0"/>
      <svg:stop style="stop-color:#0000ff;stop-opacity:1.0" offset="1.0"/>
    </svg:linearGradient>
    <linearGradient x1="13.0969px" x2="13.0969px" y1="138.457px" y2="104.247px" gradientTransform="translate(4.47014, 54.8796)" xlink:href="#linearGradient4780" id="linearGradient6654"/>
    <svg:linearGradient inkscape:collect="always" xlink:href="#linearGradient845" x1="13.0969px" y1="138.457px" x2="13.0969px" y2="104.247px" gradientUnits="userSpaceOnUse" gradientTransform="translate(4.47014, 54.8796)" id="linearGradient2036"/>
    <svg:linearGradient inkscape:collect="always" xlink:href="#linearGradient845" x1="41.7153px" y1="132.444px" x2="41.7153px" y2="109.668px" gradientUnits="userSpaceOnUse" gradientTransform="translate(28.9291, 55.315)" id="linearGradient2897"/>
    <svg:linearGradient inkscape:collect="always" xlink:href="#linearGradient845" x1="70.3338px" y1="126.431px" x2="70.3338px" y2="115.089px" gradientUnits="userSpaceOnUse" gradientTransform="translate(53.3881, 55.7504)" id="linearGradient167"/>
    <svg:linearGradient inkscape:collect="always" xlink:href="#linearGradient845" x1="98.9523px" y1="120.418px" x2="98.9523px" y2="120.511px" gradientUnits="userSpaceOnUse" gradientTransform="translate(77.8471, 56.1858)" id="linearGradient3847"/>
    <svg:linearGradient inkscape:collect="always" xlink:href="#linearGradient845" x1="127.571px" y1="114.405px" x2="127.571px" y2="125.932px" gradientUnits="userSpaceOnUse" gradientTransform="translate(102.306, 56.6212)" id="linearGradient3066"/>
    <svg:linearGradient inkscape:collect="always" xlink:href="#linearGradient845" x1="156.189px" y1="108.392px" x2="156.189px" y2="131.353px" gradientUnits="userSpaceOnUse" gradientTransform="translate(126.765, 57.0567)" id="linearGradient9549"/>
    <svg:linearGradient inkscape:collect="always" xlink:href="#linearGradient845" x1="184.808px" y1="102.379px" x2="184.808px" y2="136.775px" gradientUnits="userSpaceOnUse" gradientTransform="translate(151.224, 57.4921)" id="linearGradient6173"/>
    <svg:linearGradient inkscape:collect="always" xlink:href="#linearGradient877" x1="175.116px" y1="193.246px" x2="205.506px" y2="154.314px" gradientUnits="userSpaceOnUse" gradientTransform="translate(155.045, 129.47)" id="linearGradient3811"/>
    <svg:linearGradient inkscape:collect="always" xlink:href="#linearGradient845" gradientUnits="userSpaceOnUse" gradientTransform="translate(151.224, 57.4921)" id="linearGradient2266">
      <svg:stop style="stop-color:#008000;stop-opacity:1.0" offset="0.0"/>
      <svg:stop style="stop-color:#0000ff;stop-opacity:1.0" offset="1.0"/>
    </svg:linearGradient>
    <linearGradient inkscape:collect="always" xlink:href="#linearGradient2266" x1="184.808px" y1="102.379px" x2="184.808px" y2="136.775px" gradientUnits="userSpaceOnUse" gradientTransform="translate(151.224, 57.4921)" id="linearGradient5174"/>
    <svg:linearGradient inkscape:collect="always" xlink:href="#linearGradient877" x1="175.116px" y1="193.246px" x2="205.506px" y2="154.314px" gradientUnits="userSpaceOnUse" gradientTransform="translate(155.045, 129.47)" id="linearGradient1829"/>
    <svg:linearGradient inkscape:collect="always" xlink:href="#linearGradient845" gradientUnits="userSpaceOnUse" gradientTransform="translate(126.02, 47.9101)" id="linearGradient4426">
      <svg:stop style="stop-color:#006a00;stop-opacity:1.0" offset="0.0"/>
      <svg:stop style="stop-color:#0000d4;stop-opacity:1.0" offset="1.0"/>
    </svg:linearGradient>
    <linearGradient inkscape:collect="always" xlink:href="#linearGradient4426" x1="207.251px" y1="135.889px" x2="215.503px" y2="164.552px" gradientUnits="userSpaceOnUse" gradientTransform="translate(126.02, 47.9101)" id="linearGradient4684"/>
    <svg:linearGradient inkscape:collect="always" xlink:href="#linearGradient877" x1="175.116px" y1="193.246px" x2="205.506px" y2="154.314px" gradientUnits="userSpaceOnUse" gradientTransform="translate(155.045, 129.47)" id="linearGradient6005"/>
    <svg:linearGradient inkscape:collect="always" xlink:href="#linearGradient845" gradientUnits="userSpaceOnUse" gradientTransform="translate(100.816, 38.3281)" id="linearGradient224">
      <svg:stop style="stop-color:#005500;stop-opacity:1.0" offset="0.0"/>
      <svg:stop style="stop-color:#0000aa;stop-opacity:1.0" offset="1.0"/>
    </svg:linearGradient>
    <linearGradient inkscape:collect="always" xlink:href="#linearGradient224" x1="229.693px" y1="169.399px" x2="246.198px" y2="192.329px" gradientUnits="userSpaceOnUse" gradientTransform="translate(100.816, 38.3281)" id="linearGradient771"/>
    <svg:linearGradient inkscape:collect="always" xlink:href="#linearGradient877" x1="175.116px" y1="193.246px" x2="205.506px" y2="154.314px" gradientUnits="userSpaceOnUse" gradientTransform="translate(155.045, 129.47)" id="linearGradient9629"/>
    <svg:linearGradient inkscape:collect="always" xlink:href="#linearGradient845" gradientUnits="userSpaceOnUse" gradientTransform="translate(75.612, 28.7461)" id="linearGradient5989">
      <svg:stop style="stop-color:#004000;stop-opacity:1.0" offset="0.0"/>
      <svg:stop style="stop-color:#00007f;stop-opacity:1.0" offset="1.0"/>
    </svg:linearGradient>
    <linearGradient inkscape:collect="always" xlink:href="#linearGradient5989" x1="252.136px" y1="202.909px" x2="276.894px" y2="220.107px" gradientUnits="userSpaceOnUse" gradientTransform="translate(75.612, 28.7461)" id="linearGradient3449"/>
    <svg:linearGradient inkscape:collect="always" xlink:href="#linearGradient877" x1="175.116px" y1="193.246px" x2="205.506px" y2="154.314px" gradientUnits="userSpaceOnUse" gradientTransform="translate(155.045, 129.47)" id="linearGradient3816"/>
    <svg:linearGradient inkscape:collect="always" xlink:href="#linearGradient845" gradientUnits="userSpaceOnUse" gradientTransform="translate(50.408, 19.164)" id="linearGradient76">
      <svg:stop style="stop-color:#002a00;stop-opacity:1.0" offset="0.0"/>
      <svg:stop style="stop-color:#000055;stop-opacity:1.0" offset="1.0"/>
    </svg:linearGradient>
    <linearGradient inkscape:collect="always" xlink:href="#linearGradient76" x1="274.579px" y1="236.419px" x2="307.589px" y2="247.884px" gradientUnits="userSpaceOnUse" gradientTransform="translate(50.408, 19.164)" id="linearGradient3710"/>
    <svg:linearGradient inkscape:collect="always" xlink:href="#linearGradient877" x1="175.116px" y1="193.246px" x2="205.506px" y2="154.314px" gradientUnits="userSpaceOnUse" gradientTransform="translate(155.045, 129.47)" id="linearGradient5768"/>
    <svg:linearGradient inkscape:collect="always" xlink:href="#linearGradient845" gradientUnits="userSpaceOnUse" gradientTransform="translate(25.204, 9.58202)" id="linearGradient8950">
      <svg:stop style="stop-color:#001500;stop-opacity:1.0" offset="0.0"/>
      <svg:stop style="stop-color:#00002a;stop-opacity:1.0" offset="1.0"/>
    </svg:linearGradient>
    <linearGradient inkscape:collect="always" xlink:href="#linearGradient8950" x1="297.022px" y1="269.929px" x2="338.284px" y2="275.662px" gradientUnits="userSpaceOnUse" gradientTransform="translate(25.204, 9.58202)" id="linearGradient5011"/>
    <svg:linearGradient inkscape:collect="always" xlink:href="#linearGradient877" x1="175.116px" y1="193.246px" x2="205.506px" y2="154.314px" gradientUnits="userSpaceOnUse" gradientTransform="translate(155.045, 129.47)" id="linearGradient422"/>
    <svg:linearGradient inkscape:collect="always" xlink:href="#linearGradient845" gradientUnits="userSpaceOnUse" id="linearGradient9046">
      <svg:stop style="stop-color:#000000;stop-opacity:1.0" offset="0.0"/>
      <svg:stop style="stop-color:#000000;stop-opacity:1.0" offset="1.0"/>
    </svg:linearGradient>
    <linearGradient inkscape:collect="always" xlink:href="#linearGradient9046" x1="319.465px" y1="303.439px" x2="368.98px" y2="303.439px" gradientUnits="userSpaceOnUse" id="linearGradient6361"/>
    <svg:linearGradient inkscape:collect="always" xlink:href="#linearGradient877" gradientUnits="userSpaceOnUse" gradientTransform="translate(155.045, 129.47)" id="linearGradient9826">
      <svg:stop style="stop-color:#008000;stop-opacity:1.0" offset="0.0"/>
      <svg:stop style="stop-color:#7b0000;stop-opacity:1.0" offset="0.48378384"/>
      <svg:stop style="stop-color:#0000ff;stop-opacity:1.0" offset="1.0"/>
    </svg:linearGradient>
    <linearGradient inkscape:collect="always" xlink:href="#linearGradient9826" x1="175.116px" y1="193.246px" x2="205.506px" y2="154.314px" gradientUnits="userSpaceOnUse" gradientTransform="translate(155.045, 129.47)" id="linearGradient1050"/>
    <svg:linearGradient inkscape:collect="always" xlink:href="#linearGradient877" gradientUnits="userSpaceOnUse" gradientTransform="translate(128.878, 129.111)" id="linearGradient5134">
      <svg:stop style="stop-color:#008000;stop-opacity:1.0" offset="0.0"/>
      <svg:stop style="stop-color:#660b14;stop-opacity:1.0" offset="0.48378384"/>
      <svg:stop style="stop-color:#0000ff;stop-opacity:1.0" offset="1.0"/>
    </svg:linearGradient>
    <linearGradient inkscape:collect="always" xlink:href="#linearGradient5134" x1="145.697px" y1="190.392px" x2="178.039px" y2="157.949px" gradientUnits="userSpaceOnUse" gradientTransform="translate(128.878, 129.111)" id="linearGradient2924"/>
    <svg:linearGradient inkscape:collect="always" xlink:href="#linearGradient877" gradientUnits="userSpaceOnUse" gradientTransform="translate(102.712, 128.752)" id="linearGradient2155">
      <svg:stop style="stop-color:#008000;stop-opacity:1.0" offset="0.0"/>
      <svg:stop style="stop-color:#521629;stop-opacity:1.0" offset="0.48378384"/>
      <svg:stop style="stop-color:#0000ff;stop-opacity:1.0" offset="1.0"/>
    </svg:linearGradient>
    <linearGradient inkscape:collect="always" xlink:href="#linearGradient2155" x1="116.278px" y1="187.538px" x2="150.573px" y2="161.584px" gradientUnits="userSpaceOnUse" gradientTransform="translate(102.712, 128.752)" id="linearGradient4337"/>
    <svg:linearGradient inkscape:collect="always" xlink:href="#linearGradient877" gradientUnits="userSpaceOnUse" gradientTransform="translate(76.5448, 128.393)" id="linearGradient6394">
      <svg:stop style="stop-color:#008000;stop-opacity:1.0" offset="0.0"/>
      <svg:stop style="stop-color:#3d213d;stop-opacity:1.0" offset="0.48378384"/>
      <svg:stop style="stop-color:#0000ff;stop-opacity:1.0" offset="1.0"/>
    </svg:linearGradient>
    <linearGradient inkscape:collect="always" xlink:href="#linearGradient6394" x1="86.8589px" y1="184.684px" x2="123.107px" y2="165.219px" gradientUnits="userSpaceOnUse" gradientTransform="translate(76.5448, 128.393)" id="linearGradient3443"/>
    <svg:linearGradient inkscape:collect="always" xlink:href="#linearGradient877" gradientUnits="userSpaceOnUse" gradientTransform="translate(50.378, 128.034)" id="linearGradient9699">
      <svg:stop style="stop-color:#008000;stop-opacity:1.0" offset="0.0"/>
      <svg:stop style="stop-color:#292c52;stop-opacity:1.0" offset="0.48378384"/>
      <svg:stop style="stop-color:#0000ff;stop-opacity:1.0" offset="1.0"/>
    </svg:linearGradient>
    <linearGradient inkscape:collect="always" xlink:href="#linearGradient9699" x1="57.4398px" y1="181.831px" x2="95.6406px" y2="168.853px" gradientUnits="userSpaceOnUse" gradientTransform="translate(50.378, 128.034)" id="linearGradient3230"/>
    <svg:linearGradient inkscape:collect="always" xlink:href="#linearGradient877" gradientUnits="userSpaceOnUse" gradientTransform="translate(24.2113, 127.675)" id="linearGradient161">
      <svg:stop style="stop-color:#008000;stop-opacity:1.0" offset="0.0"/>
      <svg:stop style="stop-color:#143766;stop-opacity:1.0" offset="0.48378384"/>
      <svg:stop style="stop-color:#0000ff;stop-opacity:1.0" offset="1.0"/>
    </svg:linearGradient>
    <linearGradient inkscape:collect="always" xlink:href="#linearGradient161" x1="28.0206px" y1="178.977px" x2="68.1743px" y2="172.488px" gradientUnits="userSpaceOnUse" gradientTransform="translate(24.2113, 127.675)" id="linearGradient8683"/>
    <svg:linearGradient inkscape:collect="always" xlink:href="#linearGradient877" gradientUnits="userSpaceOnUse" gradientTransform="translate(-1.95545, 127.316)" id="linearGradient7955">
      <svg:stop style="stop-color:#008000;stop-opacity:1.0" offset="0.0"/>
      <svg:stop style="stop-color:#00427b;stop-opacity:1.0" offset="0.48378384"/>
      <svg:stop style="stop-color:#0000ff;stop-opacity:1.0" offset="1.0"/>
    </svg:linearGradient>
    <linearGradient inkscape:collect="always" xlink:href="#linearGradient7955" x1="-1.39851px" y1="176.123px" x2="40.708px" y2="176.123px" gradientUnits="userSpaceOnUse" gradientTransform="translate(-1.95545, 127.316)" id="linearGradient6015"/>
    <svg:radialGradient inkscape:collect="always" xlink:href="#linearGradient877" gradientTransform="matrix(1 0 0 0.997651 1.53145 204.301)" gradientUnits="userSpaceOnUse" id="radialGradient4780">
      <svg:stop style="stop-color:#008000;stop-opacity:1.0" offset="0.0"/>
      <svg:stop style="stop-color:#7b0000;stop-opacity:1.0" offset="0.48378384"/>
      <svg:stop style="stop-color:#0000ff;stop-opacity:1.0" offset="1.0"/>
    </svg:radialGradient>
    <radialGradient inkscape:collect="always" xlink:href="#radialGradient4780" cx="16.1679px" cy="249.255px" fx="16.1679px" fy="249.255px" r="36.3775px" gradientTransform="matrix(1 0 0 0.997651 1.53145 204.301)" gradientUnits="userSpaceOnUse" id="radialGradient827"/>
    <svg:radialGradient inkscape:collect="always" xlink:href="#linearGradient877" gradientTransform="matrix(1 0 0 1.0021 26.389 203.202)" gradientUnits="userSpaceOnUse" id="radialGradient7287">
      <svg:stop style="stop-color:#008000;stop-opacity:1.0" offset="0.0"/>
      <svg:stop style="stop-color:#660b14;stop-opacity:1.0" offset="0.48378384"/>
      <svg:stop style="stop-color:#0000ff;stop-opacity:1.0" offset="1.0"/>
    </svg:radialGradient>
    <radialGradient inkscape:collect="always" xlink:href="#radialGradient7287" cx="45.7307px" cy="249.246px" fx="45.7307px" fy="249.246px" r="36.8809px" gradientTransform="matrix(1 0 0 1.0021 26.389 203.202)" gradientUnits="userSpaceOnUse" id="radialGradient2863"/>
    <svg:radialGradient inkscape:collect="always" xlink:href="#linearGradient877" gradientTransform="matrix(1 0 0 1.00654 51.2466 202.103)" gradientUnits="userSpaceOnUse" id="radialGradient3679">
      <svg:stop style="stop-color:#008000;stop-opacity:1.0" offset="0.0"/>
      <svg:stop style="stop-color:#521629;stop-opacity:1.0" offset="0.48378384"/>
      <svg:stop style="stop-color:#0000ff;stop-opacity:1.0" offset="1.0"/>
    </svg:radialGradient>
    <radialGradient inkscape:collect="always" xlink:href="#radialGradient3679" cx="75.2936px" cy="249.237px" fx="75.2936px" fy="249.237px" r="37.3842px" gradientTransform="matrix(1 0 0 1.00654 51.2466 202.103)" gradientUnits="userSpaceOnUse" id="radialGradient3413"/>
    <svg:radialGradient inkscape:collect="always" xlink:href="#linearGradient877" gradientTransform="matrix(1 0 0 1.01099 76.1042 201.004)" gradientUnits="userSpaceOnUse" id="radialGradient3730">
      <svg:stop style="stop-color:#008000;stop-opacity:1.0" offset="0.0"/>
      <svg:stop style="stop-color:#3d213d;stop-opacity:1.0" offset="0.48378384"/>
      <svg:stop style="stop-color:#0000ff;stop-opacity:1.0" offset="1.0"/>
    </svg:radialGradient>
    <radialGradient inkscape:collect="always" xlink:href="#radialGradient3730" cx="104.857px" cy="249.228px" fx="104.857px" fy="249.228px" r="37.8876px" gradientTransform="matrix(1 0 0 1.01099 76.1042 201.004)" gradientUnits="userSpaceOnUse" id="radialGradient9027"/>
    <svg:radialGradient inkscape:collect="always" xlink:href="#linearGradient877" gradientTransform="matrix(1 0 0 1.01544 100.962 199.905)" gradientUnits="userSpaceOnUse" id="radialGradient9904">
      <svg:stop style="stop-color:#008000;stop-opacity:1.0" offset="0.0"/>
      <svg:stop style="stop-color:#292c52;stop-opacity:1.0" offset="0.48378384"/>
      <svg:stop style="stop-color:#0000ff;stop-opacity:1.0" offset="1.0"/>
    </svg:radialGradient>
    <radialGradient inkscape:collect="always" xlink:href="#radialGradient9904" cx="134.419px" cy="249.219px" fx="134.419px" fy="249.219px" r="38.3909px" gradientTransform="matrix(1 0 0 1.01544 100.962 199.905)" gradientUnits="userSpaceOnUse" id="radialGradient1770"/>
    <svg:radialGradient inkscape:collect="always" xlink:href="#linearGradient877" gradientTransform="matrix(1 0 0 1.01988 125.819 198.807)" gradientUnits="userSpaceOnUse" id="radialGradient9170">
      <svg:stop style="stop-color:#008000;stop-opacity:1.0" offset="0.0"/>
      <svg:stop style="stop-color:#143766;stop-opacity:1.0" offset="0.48378384"/>
      <svg:stop style="stop-color:#0000ff;stop-opacity:1.0" offset="1.0"/>
    </svg:radialGradient>
    <radialGradient inkscape:collect="always" xlink:href="#radialGradient9170" cx="163.982px" cy="249.209px" fx="163.982px" fy="249.209px" r="38.8942px" gradientTransform="matrix(1 0 0 1.01988 125.819 198.807)" gradientUnits="userSpaceOnUse" id="radialGradient2475"/>
    <svg:radialGradient inkscape:collect="always" xlink:href="#linearGradient877" gradientTransform="matrix(1 0 0 1.02433 150.677 197.708)" gradientUnits="userSpaceOnUse" id="radialGradient3990">
      <svg:stop style="stop-color:#008000;stop-opacity:1.0" offset="0.0"/>
      <svg:stop style="stop-color:#00427b;stop-opacity:1.0" offset="0.48378384"/>
      <svg:stop style="stop-color:#0000ff;stop-opacity:1.0" offset="1.0"/>
    </svg:radialGradient>
    <radialGradient inkscape:collect="always" xlink:href="#radialGradient3990" cx="193.545px" cy="249.2px" fx="193.545px" fy="249.2px" r="39.3976px" gradientTransform="matrix(1 0 0 1.02433 150.677 197.708)" gradientUnits="userSpaceOnUse" id="radialGradient5759"/>
  </defs>
  <sodipodi:namedview id="base" pagecolor="#ffffff" bordercolor="#666666" borderopacity="1.0" inkscape:pageopacity="0.0" inkscape:pageshadow="2" inkscape:zoom="0.24748737" inkscape:cx="960.55908" inkscape:cy="968.73534" inkscape:document-units="mm" inkscape:current-layer="layer1" showgrid="false" inkscape:window-width="1920" inkscape:window-height="1016" inkscape:window-x="0" inkscape:window-y="27" inkscape:window-maximized="1" fit-margin-top="5" fit-margin-left="5" fit-margin-right="5" fit-margin-bottom="5"/>
  <metadata id="metadata5">
    <rdf:RDF>
      <cc:Work rdf:about="">
        <dc:format>image/svg+xml</dc:format>
        <dc:type rdf:resource="http://purl.org/dc/dcmitype/StillImage"/>
        <dc:title/>
      </cc:Work>
    </rdf:RDF>
  </metadata>
  <g inkscape:label="Layer 1" inkscape:groupmode="layer" id="layer1" transform="translate(23.678219,83.72371)">
    <path style="fill:none;fill-opacity:0.0;stroke:#ff0000;stroke-width:0.26458332px;stroke-linecap:butt;stroke-linejoin:miter;stroke-opacity:1" d="M 9.7209163,-78.632799 25.595916,-61.850656 9.7209163,-44.236966" id="path1" inkscape:connector-curvature="0" sodipodi:nodetypes="ccc"/>
    <path style="fill:none;stroke:#0000ff;stroke-width:0.26458332px;stroke-linecap:butt;stroke-linejoin:miter;stroke-opacity:1;fill-opacity:0.0" d="m 352.20047,-78.632799 -15.87499,16.782143 15.87499,17.61369" id="path2" inkscape:connector-curvature="0" sodipodi:nodetypes="ccc"/>
    <path style="fill:#ff0000;stroke:#000000;stroke-width:0.26458332px;stroke-linecap:butt;stroke-linejoin:miter;stroke-opacity:1" d="M 9.7209153,40.095939 25.595916,56.878079 9.7209153,74.491769" id="path4" inkscape:connector-curvature="0" sodipodi:nodetypes="ccc"/>
    <path style="fill:#0000ff;stroke:#000000;stroke-width:0.26458332px;stroke-linecap:butt;stroke-linejoin:miter;stroke-opacity:1" d="M 361.41883,49.314289 344.63669,65.189299 327.023,49.314289" id="path3" inkscape:connector-curvature="0" sodipodi:nodetypes="ccc"/>
    <path style="fill:none;stroke:url(#linearGradient855);stroke-width:1;stroke-linecap:butt;stroke-linejoin:miter;stroke-miterlimit:4;stroke-dasharray:none;stroke-opacity:1;fill-opacity:0.0" d="m 336.13003,159.30516 15.87501,16.78216 -15.87501,17.61369" id="path6" inkscape:connector-curvature="0" sodipodi:nodetypes="ccc"/>
    <path style="fill:none;stroke:url(#linearGradient847);stroke-width:5;stroke-linecap:butt;stroke-linejoin:miter;stroke-miterlimit:4;stroke-dasharray:none;stroke-opacity:1;fill-opacity:0.0" d="m 17.699306,158.73377 v 35.52977" id="path5" inkscape:connector-curvature="0"/>
    <path style="opacity:1;vector-effect:none;fill:url(#linearGradient863);fill-opacity:1;stroke:#000000;stroke-width:0.52916664;stroke-linecap:butt;stroke-linejoin:round;stroke-miterlimit:4;stroke-dasharray:none;stroke-dashoffset:0;stroke-opacity:1" d="M -3.0893787,283.40627 H 38.487996 v 40.06548 H -3.0893787 Z" id="path8" inkscape:connector-curvature="0"/>
    <path style="opacity:1;vector-effect:none;fill:url(#linearGradient871);fill-opacity:1;stroke:#000000;stroke-width:0.52916664;stroke-linecap:butt;stroke-linejoin:round;stroke-miterlimit:4;stroke-dasharray:none;stroke-dashoffset:0;stroke-opacity:1" d="m 368.97953,303.43901 a 24.757439,24.757439 0 0 1 -24.75744,24.75744 24.757439,24.757439 0 0 1 -24.75745,-24.75744 24.757439,24.757439 0 0 1 24.75745,-24.75744 24.757439,24.757439 0 0 1 24.75744,24.75744 z" id="path7" inkscape:connector-curvature="0"/>
    <path style="opacity:1;vector-effect:none;fill:url(#radialGradient887);fill-opacity:1;stroke:#000000;stroke-width:0.52916664;stroke-linecap:butt;stroke-linejoin:round;stroke-miterlimit:4;stroke-dasharray:none;stroke-dashoffset:0;stroke-opacity:1" inkscape:transform-center-x="0.84107606" inkscape:transform-center-y="1.0141478" d="m 22.320142,488.998 -12.6461927,-12.53232 -17.7372665,1.54089 1.9133905,-17.70096 -12.2637243,-12.90683 15.0321443,-9.54043 2.44466997,-17.63543 16.83138573,5.80424 15.312163,-9.0842 5.95626,16.7782 16.64929,6.30763 -9.40406,15.11782 5.44916,16.94968 -17.68292,2.07343 z" id="path9" inkscape:connector-curvature="0"/>
    <path style="fill:url(#radialGradient897);fill-opacity:1;fill-rule:evenodd;stroke:#000000;stroke-width:0.26458332" d="m 340.42091,452.01132 c 1.00441,2.06568 -2.28895,2.37306 -3.43329,1.6694 -3.10108,-1.90688 -2.15382,-6.39585 0.0945,-8.53597 4.02172,-3.82817 10.46972,-2.21056 13.63864,1.8584 4.65051,5.97136 2.2891,14.60614 -3.62229,18.74132 -7.87896,5.51154 -18.76571,2.37814 -23.844,-5.38619 -6.3905,-9.77061 -2.47286,-22.93654 7.15008,-28.94667 11.65466,-7.27907 27.11377,-2.5709 34.04935,8.91397 8.17333,13.53453 2.67105,31.295 -10.67787,39.15203 -15.41185,9.07125 -35.47888,2.77259 -44.2547,-12.44176 -9.97164,-17.28752 -2.87512,-39.66464 14.20565,-49.35738 19.16204,-10.87379 43.85176,-2.97835 54.46006,15.96955 11.77722,21.03575 3.0821,48.03989 -17.73344,59.56273" id="path10" inkscape:connector-curvature="0"/>
    <svg:g>
      <path d="M 9.72092 -78.6328 L 25.5959 -61.8507 L 9.72092 -44.237" style="fill:none;stroke:#ff0000;fill-opacity:0.0;stroke-opacity:1.0;stroke-width:0.264583px"/>
      <path d="M 66.8008 -78.6328 L 77.3842 -61.8507 L 66.8008 -44.237" style="fill:none;stroke:#d4002a;fill-opacity:0.0;stroke-opacity:1.0;stroke-width:0.264583px"/>
      <path d="M 123.881 -78.6328 L 129.172 -61.8507 L 123.881 -44.237" style="fill:none;stroke:#aa0055;fill-opacity:0.0;stroke-opacity:1.0;stroke-width:0.264583px"/>
      <path d="M 180.961 -78.6328 L 180.961 -61.8507 L 180.961 -44.237" style="fill:none;stroke:#7f007f;fill-opacity:0.0;stroke-opacity:1.0;stroke-width:0.264583px"/>
      <path d="M 238.041 -78.6328 L 232.749 -61.8507 L 238.041 -44.237" style="fill:none;stroke:#5500aa;fill-opacity:0.0;stroke-opacity:1.0;stroke-width:0.264583px"/>
      <path d="M 295.121 -78.6328 L 284.537 -61.8507 L 295.121 -44.237" style="fill:none;stroke:#2a00d4;fill-opacity:0.0;stroke-opacity:1.0;stroke-width:0.264583px"/>
      <path d="M 352.2 -78.6328 L 336.325 -61.8507 L 352.2 -44.237" style="fill:none;stroke:#0000ff;fill-opacity:0.0;stroke-opacity:1.0;stroke-width:0.264583px"/>
    </svg:g>
    <svg:g>
      <path d="M 352.2 -78.6328 L 336.325 -61.8507 L 352.2 -44.237" style="fill:#0000ff;stroke:#0000ff;fill-opacity:0.0;stroke-opacity:1.0;stroke-width:0.264583px"/>
      <path d="M 353.737 -57.3083 L 337.711 -40.6773 L 348.004 -28.6451" style="fill:#0000ff;stroke:#0000d4;fill-opacity:0.16666666666666666;stroke-opacity:1.0;stroke-width:0.264583px"/>
      <path d="M 355.273 -35.9838 L 339.096 -19.504 L 343.808 -13.0532" style="fill:#0000ff;stroke:#0000aa;fill-opacity:0.3333333333333333;stroke-opacity:1.0;stroke-width:0.264583px"/>
      <path d="M 356.81 -14.6593 L 340.481 1.66932 L 339.612 2.53866" style="fill:#0000ff;stroke:#00007f;fill-opacity:0.5;stroke-opacity:1.0;stroke-width:0.264583px"/>
      <path d="M 358.346 6.66526 L 341.866 22.8426 L 335.415 18.1305" style="fill:#0000ff;stroke:#000055;fill-opacity:0.6666666666666666;stroke-opacity:1.0;stroke-width:0.264583px"/>
      <path d="M 359.882 27.9898 L 343.251 44.016 L 331.219 33.7224" style="fill:#0000ff;stroke:#00002a;fill-opacity:0.8333333333333334;stroke-opacity:1.0;stroke-width:0.264583px"/>
      <path d="M 361.419 49.3143 L 344.637 65.1893 L 327.023 49.3143" style="fill:#0000ff;stroke:#000000;fill-opacity:1.0;stroke-opacity:1.0;stroke-width:0.264583px"/>
    </svg:g>
    <svg:g>
      <path d="M 361.419 49.3143 L 344.637 65.1893 L 327.023 49.3143" style="fill:#0000ff;stroke:#000000;stroke-opacity:1.0;stroke-width:0.264583px"/>
      <path d="M 302.803 47.7779 L 291.463 63.8041 L 274.139 53.5105" style="fill:#2a00d4;stroke:#000000;stroke-opacity:1.0;stroke-width:0.264583px"/>
      <path d="M 244.186 46.2415 L 238.29 62.4189 L 221.256 57.7068" style="fill:#5500aa;stroke:#000000;stroke-opacity:1.0;stroke-width:0.264583px"/>
      <path d="M 185.57 44.7051 L 185.116 61.0337 L 168.372 61.903" style="fill:#7f007f;stroke:#000000;stroke-opacity:1.0;stroke-width:0.264583px"/>
      <path d="M 126.954 43.1687 L 131.943 59.6485 L 115.488 66.0993" style="fill:#aa0055;stroke:#000000;stroke-opacity:1.0;stroke-width:0.264583px"/>
      <path d="M 68.3372 41.6323 L 78.7694 58.2633 L 62.6046 70.2955" style="fill:#d4002a;stroke:#000000;stroke-opacity:1.0;stroke-width:0.264583px"/>
      <path d="M 9.72092 40.0959 L 25.5959 56.8781 L 9.72092 74.4918" style="fill:#ff0000;stroke:#000000;stroke-opacity:1.0;stroke-width:0.264583px"/>
    </svg:g>
    <svg:g>
      <path d="M 9.72092 40.0959 L 25.5959 56.8781" style="fill:#ff0000;stroke:url(#linearGradient8555);fill-opacity:1.0;stroke-opacity:1.0;stroke-width:0.264583px"/>
      <path d="M 11.0506 59.8689 L 24.2798 79.7757" style="fill:#ff0000;stroke:url(#linearGradient9603);fill-opacity:0.8333333333333334;stroke-opacity:1.0;stroke-width:1.05382px"/>
      <path d="M 12.3804 79.6419 L 22.9637 102.673" style="fill:#ff0000;stroke:url(#linearGradient7856);fill-opacity:0.6666666666666667;stroke-opacity:1.0;stroke-width:1.84306px"/>
      <path d="M 13.7101 99.4149 L 21.6476 125.571" style="fill:#ff0000;stroke:url(#linearGradient6457);fill-opacity:0.5;stroke-opacity:1.0;stroke-width:2.63229px"/>
      <path d="M 15.0398 119.188 L 20.3315 148.468" style="fill:#ff0000;stroke:url(#linearGradient5347);fill-opacity:0.33333333333333337;stroke-opacity:1.0;stroke-width:3.42153px"/>
      <path d="M 16.3696 138.961 L 19.0154 171.366" style="fill:#ff0000;stroke:url(#linearGradient5447);fill-opacity:0.16666666666666663;stroke-opacity:1.0;stroke-width:4.21076px"/>
      <path d="M 17.6993 158.734 L 17.6993 194.264" style="fill:#ff0000;stroke:url(#linearGradient6654);fill-opacity:0.0;stroke-opacity:1.0;stroke-width:5px"/>
    </svg:g>
    <svg:g>
      <path d="M 17.6993 158.734 L 17.6993 194.264" style="fill:none;stroke:url(#linearGradient2036);fill-opacity:0.0;stroke-opacity:1.0;stroke-width:5px"/>
      <path d="M 70.7711 158.829 L 73.4169 191.234" style="fill:none;stroke:url(#linearGradient2897);fill-opacity:0.0;stroke-opacity:1.0;stroke-width:4.33333px"/>
      <path d="M 123.843 158.924 L 129.135 188.205" style="fill:none;stroke:url(#linearGradient167);fill-opacity:0.0;stroke-opacity:1.0;stroke-width:3.66667px"/>
      <path d="M 176.915 159.019 L 184.852 185.175" style="fill:none;stroke:url(#linearGradient3847);fill-opacity:0.0;stroke-opacity:1.0;stroke-width:3px"/>
      <path d="M 229.986 159.115 L 240.57 182.146" style="fill:none;stroke:url(#linearGradient3066);fill-opacity:0.0;stroke-opacity:1.0;stroke-width:2.33333px"/>
      <path d="M 283.058 159.21 L 296.287 179.117" style="fill:none;stroke:url(#linearGradient9549);fill-opacity:0.0;stroke-opacity:1.0;stroke-width:1.66667px"/>
      <path d="M 336.13 159.305 L 352.005 176.087" style="fill:none;stroke:url(#linearGradient6173);fill-opacity:0.0;stroke-opacity:1.0;stroke-width:1px"/>
    </svg:g>
    <svg:g>
      <path d="M 336.13 159.305 L 352.005 176.087 L 336.13 193.701" style="fill:url(#linearGradient3811);stroke:url(#linearGradient5174);fill-opacity:0.0;stroke-opacity:1.0;stroke-width:1px;opacity:1.0"/>
      <path d="M 341.605 183.327 C 341.605 184.422 354.399 199.456 353.626 200.23 C 352.852 201.004 338.573 216.117 337.479 216.117" style="fill:url(#linearGradient1829);stroke:url(#linearGradient4684);fill-opacity:0.16666666666666666;stroke-opacity:1.0;stroke-width:0.921528px;opacity:1.0"/>
      <path d="M 347.08 207.35 C 347.08 209.538 356.794 222.826 355.246 224.373 C 353.698 225.921 341.016 238.533 338.827 238.533" style="fill:url(#linearGradient6005);stroke:url(#linearGradient771);fill-opacity:0.3333333333333333;stroke-opacity:1.0;stroke-width:0.843056px;opacity:1.0"/>
      <path d="M 352.555 231.372 C 352.555 234.655 359.188 246.195 356.867 248.516 C 354.545 250.838 343.459 260.949 340.176 260.949" style="fill:url(#linearGradient9629);stroke:url(#linearGradient3449);fill-opacity:0.5;stroke-opacity:1.0;stroke-width:0.764583px;opacity:1.0"/>
      <path d="M 358.03 255.394 C 358.03 259.772 361.582 269.564 358.487 272.659 C 355.392 275.754 345.902 283.365 341.525 283.365" style="fill:url(#linearGradient3816);stroke:url(#linearGradient3710);fill-opacity:0.6666666666666666;stroke-opacity:1.0;stroke-width:0.686111px;opacity:1.0"/>
      <path d="M 363.505 279.417 C 363.505 284.888 363.977 292.933 360.108 296.802 C 356.239 300.671 348.345 305.781 342.873 305.781" style="fill:url(#linearGradient5768);stroke:url(#linearGradient5011);fill-opacity:0.8333333333333334;stroke-opacity:1.0;stroke-width:0.607639px;opacity:1.0"/>
      <path d="M 368.98 303.439 C 368.98 310.005 366.371 316.302 361.728 320.945 C 357.085 325.588 350.788 328.196 344.222 328.196" style="fill:url(#linearGradient422);stroke:url(#linearGradient6361);fill-opacity:1.0;stroke-opacity:1.0;stroke-width:0.529167px;opacity:1.0"/>
    </svg:g>
    <svg:g>
      <path d="M 368.98 303.439 C 368.98 310.005 366.371 316.302 361.728 320.945 C 357.085 325.588 350.788 328.196 344.222 328.196 C 337.656 328.196 331.359 325.588 326.716 320.945 C 322.073 316.302 319.465 310.005 319.465 303.439" style="fill:url(#linearGradient1050);stroke:#000000;fill-opacity:1.0;stroke-opacity:1.0;stroke-width:0.529167px;opacity:1.0"/>
      <path d="M 306.968 300.1 C 306.968 305.572 311.724 310.82 307.855 314.689 C 303.986 318.558 298.738 327.409 293.266 327.409 C 287.795 327.409 275.617 325.235 271.748 321.366 C 267.879 317.497 265.706 305.572 265.706 300.1" style="fill:url(#linearGradient2924);stroke:#000000;fill-opacity:1.0;stroke-opacity:1.0;stroke-width:0.529167px;opacity:1.0"/>
      <path d="M 244.957 296.761 C 244.957 301.139 257.077 305.337 253.981 308.432 C 250.886 311.527 246.688 326.622 242.311 326.622 C 237.933 326.622 219.876 324.883 216.781 321.787 C 213.686 318.692 211.947 301.139 211.947 296.761" style="fill:url(#linearGradient4337);stroke:#000000;fill-opacity:1.0;stroke-opacity:1.0;stroke-width:0.529167px;opacity:1.0"/>
      <path d="M 182.945 293.423 C 182.945 296.706 202.43 299.854 200.108 302.176 C 197.787 304.497 194.638 325.834 191.355 325.834 C 188.072 325.834 164.135 324.53 161.813 322.208 C 159.492 319.887 158.188 296.706 158.188 293.423" style="fill:url(#linearGradient3443);stroke:#000000;fill-opacity:1.0;stroke-opacity:1.0;stroke-width:0.529167px;opacity:1.0"/>
      <path d="M 120.934 290.084 C 120.934 292.273 147.782 294.372 146.235 295.919 C 144.687 297.467 142.588 325.047 140.399 325.047 C 138.211 325.047 108.393 324.177 106.846 322.63 C 105.298 321.082 104.429 292.273 104.429 290.084" style="fill:url(#linearGradient3230);stroke:#000000;fill-opacity:1.0;stroke-opacity:1.0;stroke-width:0.529167px;opacity:1.0"/>
      <path d="M 58.9221 286.745 C 58.9221 287.839 93.1352 288.889 92.3614 289.663 C 91.5876 290.437 90.538 324.259 89.4437 324.259 C 88.3493 324.259 52.652 323.824 51.8782 323.051 C 51.1044 322.277 50.6696 287.839 50.6696 286.745" style="fill:url(#linearGradient8683);stroke:#000000;fill-opacity:1.0;stroke-opacity:1.0;stroke-width:0.529167px;opacity:1.0"/>
      <path d="M -3.08938 283.406 L 38.488 283.406 L 38.488 323.472 L -3.08938 323.472 Z" style="fill:url(#linearGradient6015);stroke:#000000;fill-opacity:1.0;stroke-opacity:1.0;stroke-width:0.529167px;opacity:1.0"/>
    </svg:g>
    <svg:g>
      <path d="M -3.08938 283.406 L 38.488 283.406 L 38.488 323.472 L -3.08938 323.472 Z" style="fill:url(#linearGradient863);stroke:#000000;fill-opacity:1.0;stroke-opacity:1.0;stroke-width:0.529167px;opacity:1.0"/>
      <path d="M 1.14554 317.672 L 33.6857 315.583 L 30.7294 349.228 L -3.59947 346.277 L -5.64342 310.738" style="fill:url(#linearGradient863);stroke:#000000;fill-opacity:1.0;stroke-opacity:1.0;stroke-width:0.529167px;opacity:1.0"/>
      <path d="M 5.38046 351.937 L 28.8833 347.759 L 22.9709 374.983 L -4.10956 369.083 L -8.19747 338.07" style="fill:url(#linearGradient863);stroke:#000000;fill-opacity:1.0;stroke-opacity:1.0;stroke-width:0.529167px;opacity:1.0"/>
      <path d="M 9.61538 386.202 L 24.081 379.936 L 15.2123 400.739 L -4.61965 391.889 L -10.7515 365.403" style="fill:url(#linearGradient863);stroke:#000000;fill-opacity:1.0;stroke-opacity:1.0;stroke-width:0.529167px;opacity:1.0"/>
      <path d="M 13.8503 420.467 L 19.2786 412.113 L 7.45379 426.495 L -5.12974 414.694 L -13.3056 392.735" style="fill:url(#linearGradient863);stroke:#000000;fill-opacity:1.0;stroke-opacity:1.0;stroke-width:0.529167px;opacity:1.0"/>
      <path d="M 18.0852 454.733 L 14.4763 444.289 L -0.304765 452.251 L -5.63984 437.5 L -15.8596 420.067" style="fill:url(#linearGradient863);stroke:#000000;fill-opacity:1.0;stroke-opacity:1.0;stroke-width:0.529167px;opacity:1.0"/>
      <path d="M 22.3201 488.998 L 9.67395 476.466 L -8.06332 478.007 L -6.14993 460.306 L -18.4137 447.399" style="fill:url(#linearGradient863);stroke:#000000;fill-opacity:1.0;stroke-opacity:1.0;stroke-width:0.529167px;opacity:1.0"/>
    </svg:g>
    <svg:g>
      <path d="M 22.3201 488.998 L 9.67395 476.466 L -8.06332 478.007 L -6.14993 460.306 L -18.4137 447.399 L -3.38151 437.858 L -0.936837 420.223 L 15.8945 426.027 L 31.2067 416.943 L 37.163 433.721 L 53.8123 440.029 L 44.4082 455.147 L 49.8574 472.096" style="fill:url(#radialGradient827);stroke:#000000;fill-opacity:1.0;stroke-opacity:1.0;stroke-width:0.529167px;opacity:1.0"/>
      <path d="M 75.3369 482.834 C 75.5043 483.178 64.417 472.785 64.2262 472.668 C 63.7094 472.35 49.0862 472.886 49.4609 472.53 C 50.1312 471.892 52.8004 457.41 53.3285 458.089 C 54.1036 459.084 43.4903 449.767 42.505 450.456 C 41.1919 451.375 51.9042 442.902 51.0578 441.608 C 49.9927 439.98 52.6829 423.089 54.2867 422.088 C 56.2292 420.875 72.8318 426.496 73.9878 428.41 C 75.35 430.666 87.1931 426.056 84.9683 427.365 C 82.3996 428.877 84.0187 441.809 82.556 439.274 C 80.8941 436.392 95.9513 437.919 98.798 436.304 C 101.992 434.491 98.27 448.406 100.038 451.564 C 102.001 455.069 105.093 473.695 101.623 475.615" style="fill:url(#radialGradient2863);stroke:#000000;fill-opacity:1.0;stroke-opacity:1.0;stroke-width:0.485069px;opacity:1.0"/>
      <path d="M 128.354 476.669 C 128.689 477.358 119.16 469.105 118.779 468.871 C 117.745 468.235 106.236 467.766 106.985 467.053 C 108.326 465.777 111.751 454.515 112.807 455.871 C 114.357 457.862 105.394 452.136 103.424 453.514 C 100.797 455.351 107.19 447.946 105.497 445.358 C 103.367 442.101 106.303 425.956 109.51 423.952 C 113.395 421.526 129.769 426.965 132.081 430.793 C 134.805 435.305 143.179 435.169 138.73 437.788 C 133.593 440.812 130.874 449.898 127.949 444.826 C 124.625 439.064 138.09 435.81 143.784 432.579 C 150.171 428.954 152.132 441.664 155.668 447.98 C 159.594 454.992 160.328 475.293 153.389 479.134" style="fill:url(#radialGradient3413);stroke:#000000;fill-opacity:1.0;stroke-opacity:1.0;stroke-width:0.440972px;opacity:1.0"/>
      <path d="M 181.371 470.505 C 181.873 471.538 173.903 465.425 173.331 465.073 C 171.78 464.12 163.385 462.646 164.509 461.576 C 166.52 459.662 170.701 451.62 172.285 453.654 C 174.611 456.64 167.298 454.504 164.342 456.572 C 160.403 459.327 162.476 452.99 159.936 449.108 C 156.741 444.223 159.922 428.822 164.734 425.817 C 170.561 422.178 186.706 427.434 190.174 433.176 C 194.261 439.944 199.166 444.282 192.491 448.21 C 184.785 452.746 177.73 457.986 173.342 450.379 C 168.356 441.735 180.229 433.7 188.77 428.854 C 198.351 423.417 205.993 434.923 211.298 444.397 C 217.186 454.915 215.563 476.892 205.155 482.654" style="fill:url(#radialGradient9027);stroke:#000000;fill-opacity:1.0;stroke-opacity:1.0;stroke-width:0.396875px;opacity:1.0"/>
      <path d="M 234.387 464.34 C 235.057 465.717 228.646 461.745 227.883 461.276 C 225.816 460.004 220.535 457.525 222.034 456.099 C 224.715 453.547 229.651 448.725 231.764 451.437 C 234.864 455.418 229.202 456.872 225.261 459.629 C 220.008 463.304 217.761 458.035 214.376 452.858 C 210.115 446.345 213.542 431.689 219.957 427.682 C 227.727 422.829 243.644 427.903 248.267 435.559 C 253.716 444.582 255.152 453.395 246.253 458.633 C 235.978 464.68 224.586 466.074 218.735 455.931 C 212.087 444.406 222.368 431.59 233.755 425.129 C 246.53 417.879 259.855 428.182 266.927 440.814 C 274.779 454.838 270.799 478.491 256.922 486.173" style="fill:url(#radialGradient1770);stroke:#000000;fill-opacity:1.0;stroke-opacity:1.0;stroke-width:0.352778px;opacity:1.0"/>
      <path d="M 287.404 458.176 C 288.241 459.897 283.389 458.065 282.435 457.478 C 279.851 455.889 277.684 452.405 279.558 450.622 C 282.909 447.432 288.602 445.829 291.242 449.22 C 295.118 454.196 291.106 459.241 286.18 462.687 C 279.614 467.28 273.047 463.079 268.815 456.608 C 263.49 448.466 267.162 434.555 275.181 429.547 C 284.893 423.481 300.581 428.372 306.361 437.943 C 313.172 449.221 311.139 462.508 300.014 469.055 C 287.171 476.615 271.441 474.162 264.128 461.483 C 255.819 447.077 264.507 429.481 278.741 421.404 C 294.71 412.342 313.717 421.441 322.557 437.231 C 332.372 454.761 326.034 480.089 308.688 489.692" style="fill:url(#radialGradient2475);stroke:#000000;fill-opacity:1.0;stroke-opacity:1.0;stroke-width:0.308681px;opacity:1.0"/>
      <path d="M 340.421 452.011 C 341.425 454.077 338.132 454.384 336.988 453.681 C 333.887 451.774 334.834 447.285 337.082 445.145 C 341.104 441.317 347.552 442.934 350.721 447.003 C 355.371 452.975 353.01 461.609 347.098 465.744 C 339.22 471.256 328.333 468.123 323.254 460.358 C 316.864 450.588 320.782 437.422 330.405 431.412 C 342.059 424.133 357.518 428.841 364.454 440.326 C 372.627 453.86 367.125 471.621 353.776 479.478 C 338.364 488.549 318.297 482.25 309.521 467.036 C 299.55 449.748 306.646 427.371 323.727 417.678 C 342.889 406.805 367.579 414.7 378.187 433.648 C 389.964 454.684 381.269 481.688 360.454 493.211" style="fill:url(#radialGradient5759);stroke:#000000;fill-opacity:1.0;stroke-opacity:1.0;stroke-width:0.264583px;opacity:1.0"/>
    </svg:g>
  </g>
</svg>